<?xml version="1.0" encoding="UTF-8" standalone="no"?>
<!-- Created with Inkscape (http://www.inkscape.org/) -->

<svg
   width="10mm"
   height="128mm"
   viewBox="0 0 10 128"
   version="1.1"
   id="svg5"
   inkscape:version="1.2.1 (9c6d41e, 2022-07-14)"
   sodipodi:docname="panel-graphics.svg"
   xml:space="preserve"
   inkscape:export-filename="panel-graphics-export.png"
   inkscape:export-xdpi="1000"
   inkscape:export-ydpi="1000"
   xmlns:inkscape="http://www.inkscape.org/namespaces/inkscape"
   xmlns:sodipodi="http://sodipodi.sourceforge.net/DTD/sodipodi-0.dtd"
   xmlns="http://www.w3.org/2000/svg"
   xmlns:svg="http://www.w3.org/2000/svg"><sodipodi:namedview
     id="namedview7"
     pagecolor="#505050"
     bordercolor="#ffffff"
     borderopacity="1"
     inkscape:showpageshadow="0"
     inkscape:pageopacity="0"
     inkscape:pagecheckerboard="1"
     inkscape:deskcolor="#505050"
     inkscape:document-units="mm"
     showgrid="false"
     inkscape:zoom="3.4001938"
     inkscape:cx="-8.8230264"
     inkscape:cy="189.10687"
     inkscape:window-width="2145"
     inkscape:window-height="1386"
     inkscape:window-x="711"
     inkscape:window-y="25"
     inkscape:window-maximized="0"
     inkscape:current-layer="layer1"
     showguides="true"><sodipodi:guide
       position="4.9977838,128.25761"
       orientation="1,0"
       id="guide246"
       inkscape:locked="false" /><sodipodi:guide
       position="4.998861,121.00159"
       orientation="0,-1"
       id="guide254"
       inkscape:locked="false" /><sodipodi:guide
       position="4.9986247,13.598019"
       orientation="0,-1"
       id="guide256"
       inkscape:locked="false" /><sodipodi:guide
       position="5.0013592,104.60368"
       orientation="0,-1"
       id="guide258"
       inkscape:locked="false" /><sodipodi:guide
       position="5.0018492,91.596404"
       orientation="0,-1"
       id="guide260"
       inkscape:locked="false" /><sodipodi:guide
       position="5.004941,78.603404"
       orientation="0,-1"
       id="guide262"
       inkscape:locked="false" /><sodipodi:guide
       position="5.0032804,65.598904"
       orientation="0,-1"
       id="guide264"
       inkscape:locked="false" /><sodipodi:guide
       position="4.9954491,52.5981"
       orientation="0,-1"
       id="guide266"
       inkscape:locked="false" /><sodipodi:guide
       position="4.9975446,39.596537"
       orientation="0,-1"
       id="guide268"
       inkscape:locked="false" /><sodipodi:guide
       position="4.997119,26.598604"
       orientation="0,-1"
       id="guide270"
       inkscape:locked="false" /><sodipodi:guide
       position="5.0043039,6.9967188"
       orientation="0,-1"
       id="guide287"
       inkscape:locked="false" /><inkscape:grid
       type="xygrid"
       id="grid5807" /></sodipodi:namedview><defs
     id="defs2" /><g
     inkscape:label="Layer 1"
     inkscape:groupmode="layer"
     id="layer1"><rect
       style="fill:none;stroke-width:0.242667"
       id="rect131"
       width="9.9981403"
       height="127.99529"
       x="0.0028239817"
       y="0.0017380996"
       inkscape:label="background"
       sodipodi:insensitive="true" /><circle
       style="fill:none;stroke:#000000;stroke-width:0.264583"
       id="path518-21"
       cx="5.000309"
       cy="114.40164"
       r="1.7497548"
       inkscape:label="2-3" /><circle
       style="fill:none;stroke:#000000;stroke-width:0.264583"
       id="path518-5"
       cx="4.9927344"
       cy="101.40152"
       r="1.7497548"
       inkscape:label="2-2" /><circle
       style="fill:none;stroke:#000000;stroke-width:0.264583"
       id="path518-1"
       cx="4.9988551"
       cy="88.403732"
       r="1.7497548"
       inkscape:label="2-1" /><path
       id="circle177-3"
       style="fill:#000000;stroke-width:0.264583;stroke:#000000"
       transform="translate(0.0069057)"
       d="m 4.9882812,72.396484 a 3.0059695,3.0059695 0 0 0 -3.0058593,3.00586 3.0059695,3.0059695 0 0 0 3.0058593,3.005859 3.0059695,3.0059695 0 0 0 3.0058594,-3.005859 3.0059695,3.0059695 0 0 0 -3.0058594,-3.00586 z"
       inkscape:label="in2" /><circle
       style="display:inline;fill:#ffffff;stroke:#ffffff;stroke-width:0.264583"
       id="path518-1-8"
       cx="4.9954338"
       cy="75.402397"
       r="1.7497548"
       inkscape:label="in2cut" /><circle
       style="fill:none;stroke:#000000;stroke-width:0.264583"
       id="path518-27"
       cx="4.9967914"
       cy="62.40099"
       r="1.7497548"
       inkscape:label="1-3" /><circle
       style="fill:none;stroke:#000000;stroke-width:0.264583"
       id="path518-2"
       cx="4.9976759"
       cy="49.391602"
       r="1.7497548"
       inkscape:label="1-2" /><circle
       style="fill:none;stroke:#000000;stroke-width:0.264583"
       id="path518"
       cx="4.9976044"
       cy="36.403988"
       r="1.7497548"
       inkscape:label="1-1" /><path
       id="circle1216"
       style="display:inline;fill:#000000;stroke-width:0.264583;stroke:#000000"
       d="M 8.0047855,23.402029 A 3.0059695,3.0059695 0 0 1 4.998816,26.407999 3.0059695,3.0059695 0 0 1 1.9928465,23.402029 3.0059695,3.0059695 0 0 1 4.998816,20.39606 3.0059695,3.0059695 0 0 1 8.0047855,23.402029 Z"
       inkscape:label="in1" /><path
       id="path518-1-8-8"
       style="display:inline;fill:#ffffff;stroke:#ffffff;stroke-width:0.264583"
       d="M 6.7494925,23.38895 A 1.7497548,1.7497548 0 0 1 4.9997377,25.138705 1.7497548,1.7497548 0 0 1 3.249983,23.38895 1.7497548,1.7497548 0 0 1 4.9997377,21.639196 1.7497548,1.7497548 0 0 1 6.7494925,23.38895 Z"
       inkscape:label="in1cut" /><text
       xml:space="preserve"
       style="font-size:3.175px;fill:#000000;stroke:#000000;stroke-width:0.264583"
       x="4.8855424"
       y="122.84515"
       id="text883"
       inkscape:label="moolt"><tspan
         sodipodi:role="line"
         id="tspan881"
         style="text-align:center;text-anchor:middle;fill:#000000;stroke-width:0.264583;stroke:#000000"
         x="4.8855424"
         y="122.84515">moolt</tspan></text><g
       id="g2335"
       transform="matrix(-0.25690938,-0.27412209,0.27412209,-0.25690938,-21.130499,20.13128)"
       style="stroke:#000000;stroke-width:0.53234932;stroke-dasharray:none"><path
         style="fill:none;stroke:#000000;stroke-width:0.53234932;stroke-dasharray:none"
         d="m -44.82076,44.720488 2.595785,-1.498674 c -2.67402,1.509953 -2.669013,1.502625 0,2.997555 z"
         id="path2331"
         sodipodi:nodetypes="cccc" /><path
         style="fill:none;stroke:#000000;stroke-width:0.53234932;stroke-dasharray:none"
         d="m -44.75418,44.720599 h 5.426085"
         id="path2333"
         sodipodi:nodetypes="cc" /></g><g
       id="g2315"
       transform="matrix(0.29050644,-0.27949995,0.27949995,0.29050644,7.855465,47.506508)"
       style="fill:#000000;stroke:#000000;stroke-width:0.496117;stroke-dasharray:none"><path
         style="fill:#000000;stroke:#000000;stroke-width:0.496117;stroke-dasharray:none"
         d="m -44.82076,44.720488 2.595785,-1.498674 v 2.997555 z"
         id="path2309" /><path
         style="fill:#000000;stroke:#000000;stroke-width:0.496117;stroke-dasharray:none"
         d="m -42.355574,44.720599 h 3.027479"
         id="path2311" /></g><g
       id="g2321"
       transform="matrix(0.28914093,-0.27853154,0.27853154,0.28914093,7.8295957,-4.5076527)"
       style="stroke:#000000;stroke-width:0.49816284;stroke-dasharray:none"><path
         style="fill:none;stroke:#000000;stroke-width:0.49816284;stroke-dasharray:none"
         d="m -44.82076,44.720488 2.595785,-1.498674 v 2.997555 z"
         id="path2317" /><path
         style="fill:none;stroke:#000000;stroke-width:0.49816284;stroke-dasharray:none"
         d="m -42.355574,44.720599 h 3.027479"
         id="path2319" /></g><g
       id="g2401"
       transform="matrix(-0.28914093,0.27853154,-0.27853154,-0.28914093,7.2192857,58.93359)"
       style="stroke:#000000;stroke-width:0.49816284;stroke-dasharray:none"><path
         style="fill:none;stroke:#000000;stroke-width:0.49816284;stroke-dasharray:none"
         d="m -44.82076,44.720488 2.595785,-1.498674 v 2.997555 z"
         id="path2397" /><path
         style="fill:none;stroke:#000000;stroke-width:0.49816284;stroke-dasharray:none"
         d="m -42.355574,44.720599 h 3.027479"
         id="path2399" /></g><g
       id="g2407"
       transform="matrix(-0.28914093,0.27853154,-0.27853154,-0.28914093,7.3278161,72.015849)"
       style="stroke:#000000;stroke-width:0.49816284;stroke-dasharray:none"><path
         style="fill:none;stroke:#000000;stroke-width:0.49816284;stroke-dasharray:none"
         d="m -44.82076,44.720488 2.595785,-1.498674 v 2.997555 z"
         id="path2403" /><path
         style="fill:none;stroke:#000000;stroke-width:0.49816284;stroke-dasharray:none"
         d="m -42.355574,44.720599 h 3.027479"
         id="path2405" /></g><g
       id="g2413"
       transform="matrix(-0.28914093,0.27853154,-0.27853154,-0.28914093,7.323402,85.040021)"
       style="stroke:#000000;stroke-width:0.49816284;stroke-dasharray:none"><path
         style="fill:none;stroke:#000000;stroke-width:0.49816284;stroke-dasharray:none"
         d="m -44.82076,44.720488 2.595785,-1.498674 v 2.997555 z"
         id="path2409" /><path
         style="fill:none;stroke:#000000;stroke-width:0.49816284;stroke-dasharray:none"
         d="m -42.355574,44.720599 h 3.027479"
         id="path2411" /></g><g
       id="g2425"
       transform="matrix(0.25690938,0.27412209,-0.27412209,0.25690938,26.09979,34.44758)"
       style="stroke:#000000;stroke-width:0.53234932;stroke-dasharray:none"><path
         style="fill:none;stroke:#000000;stroke-width:0.53234932;stroke-dasharray:none"
         d="m -44.82076,44.720488 2.595785,-1.498674 c -2.67402,1.509953 -2.669013,1.502625 0,2.997555 z"
         id="path2421"
         sodipodi:nodetypes="cccc" /><path
         style="fill:none;stroke:#000000;stroke-width:0.53234932;stroke-dasharray:none"
         d="m -44.75418,44.720599 h 5.426085"
         id="path2423"
         sodipodi:nodetypes="cc" /></g><g
       id="g2431"
       transform="matrix(0.25690938,0.27412209,-0.27412209,0.25690938,26.097876,47.447391)"
       style="stroke:#000000;stroke-width:0.53234932;stroke-dasharray:none"><path
         style="fill:none;stroke:#000000;stroke-width:0.53234932;stroke-dasharray:none"
         d="m -44.82076,44.720488 2.595785,-1.498674 c -2.67402,1.509953 -2.669013,1.502625 0,2.997555 z"
         id="path2427"
         sodipodi:nodetypes="cccc" /><path
         style="fill:none;stroke:#000000;stroke-width:0.53234932;stroke-dasharray:none"
         d="m -44.75418,44.720599 h 5.426085"
         id="path2429"
         sodipodi:nodetypes="cc" /></g><g
       id="g2443"
       transform="matrix(0.25690938,0.27412209,-0.27412209,0.25690938,26.060982,60.486402)"
       style="stroke:#000000;stroke-width:0.53234932;stroke-dasharray:none"><path
         style="fill:none;stroke:#000000;stroke-width:0.53234932;stroke-dasharray:none"
         d="m -44.82076,44.720488 2.595785,-1.498674 c -2.67402,1.509953 -2.669013,1.502625 0,2.997555 z"
         id="path2439"
         sodipodi:nodetypes="cccc" /><path
         style="fill:none;stroke:#000000;stroke-width:0.53234932;stroke-dasharray:none"
         d="m -44.75418,44.720599 h 5.426085"
         id="path2441"
         sodipodi:nodetypes="cc" /></g><g
       id="g2449"
       transform="matrix(0.25690938,0.27412209,-0.27412209,0.25690938,25.851184,86.114075)"
       style="fill:#000000;stroke:#000000;stroke-width:0.53234932;stroke-dasharray:none"><g
         id="g2467"
         transform="translate(1.1304399,-0.07860428)"
         style="fill:#000000;stroke:#000000;stroke-width:0.53234932;stroke-dasharray:none"><path
           style="fill:#000000;stroke:#000000;stroke-width:0.53234932;stroke-dasharray:none"
           d="m -44.82076,44.720488 2.595785,-1.498674 c -2.67402,1.509953 -2.669013,1.502625 0,2.997555 z"
           id="path2445"
           sodipodi:nodetypes="cccc" /><path
           style="fill:#000000;stroke:#000000;stroke-width:0.53234932;stroke-dasharray:none"
           d="m -44.75418,44.720599 h 5.426085"
           id="path2447"
           sodipodi:nodetypes="cc" /></g></g><g
       id="g2455"
       transform="matrix(0.25690938,0.27412209,-0.27412209,0.25690938,26.131876,99.412787)"
       style="fill:#000000;stroke:#000000;stroke-width:0.53234932;stroke-dasharray:none"><path
         style="fill:#000000;stroke:#000000;stroke-width:0.53234932;stroke-dasharray:none"
         d="m -44.82076,44.720488 2.595785,-1.498674 c -2.67402,1.509953 -2.669013,1.502625 0,2.997555 z"
         id="path2451"
         sodipodi:nodetypes="cccc" /><path
         style="fill:#000000;stroke:#000000;stroke-width:0.53234932;stroke-dasharray:none"
         d="m -44.75418,44.720599 h 5.426085"
         id="path2453"
         sodipodi:nodetypes="cc" /></g><g
       id="g2461"
       transform="matrix(0.25690938,0.27412209,-0.27412209,0.25690938,26.074524,112.47781)"
       style="stroke:#000000;stroke-width:0.53234932;stroke-dasharray:none"><path
         style="fill:none;stroke:#000000;stroke-width:0.53234932;stroke-dasharray:none"
         d="m -44.82076,44.720488 2.595785,-1.498674 c -2.67402,1.509953 -2.669013,1.502625 0,2.997555 z"
         id="path2457"
         sodipodi:nodetypes="cccc" /><path
         style="fill:none;stroke:#000000;stroke-width:0.53234932;stroke-dasharray:none"
         d="m -44.75418,44.720599 h 5.426085"
         id="path2459"
         sodipodi:nodetypes="cc" /></g><g
       id="g2540"
       transform="matrix(-0.29050644,0.27949995,-0.27949995,-0.29050644,7.2933209,111.10995)"
       style="fill:#000000;stroke:#000000;stroke-width:0.49611724;stroke-dasharray:none"><path
         style="fill:#000000;stroke:#000000;stroke-width:0.49611724;stroke-dasharray:none"
         d="m -44.82076,44.720488 2.595785,-1.498674 v 2.997555 z"
         id="path2536" /><path
         style="fill:#000000;stroke:#000000;stroke-width:0.49611724;stroke-dasharray:none"
         d="m -42.355574,44.720599 h 3.027479"
         id="path2538" /></g><g
       id="g2546"
       transform="matrix(-0.29050644,0.27949995,-0.27949995,-0.29050644,7.3228501,124.12621)"
       style="fill:#000000;stroke:#000000;stroke-width:0.49611724;stroke-dasharray:none"><path
         style="fill:#000000;stroke:#000000;stroke-width:0.49611724;stroke-dasharray:none"
         d="m -44.82076,44.720488 2.595785,-1.498674 v 2.997555 z"
         id="path2542" /><path
         style="fill:#000000;stroke:#000000;stroke-width:0.49611724;stroke-dasharray:none"
         d="m -42.355574,44.720599 h 3.027479"
         id="path2544" /></g><g
       id="g2552"
       transform="matrix(-0.29050644,0.27949995,-0.27949995,-0.29050644,7.2928479,137.09866)"
       style="fill:#000000;stroke:#000000;stroke-width:0.49611724;stroke-dasharray:none"><path
         style="fill:#000000;stroke:#000000;stroke-width:0.49611724;stroke-dasharray:none"
         d="m -44.82076,44.720488 2.595785,-1.498674 v 2.997555 z"
         id="path2548" /><path
         style="fill:#000000;stroke:#000000;stroke-width:0.49611724;stroke-dasharray:none"
         d="m -42.355574,44.720599 h 3.027479"
         id="path2550" /></g><g
       id="g2987"
       transform="translate(-0.15507506)"><path
         style="fill:#000000;stroke-width:0.00976516"
         d="m 7.8203182,14.13484 c -0.257389,-0.02093 -0.48613,-0.178884 -0.593705,-0.409987 -0.04742,-0.101873 -0.06126,-0.167975 -0.06625,-0.316328 -0.0054,-0.160045 0.01372,-0.263208 0.07064,-0.381557 0.0891,-0.185253 0.25743,-0.324885 0.458933,-0.380701 0.08802,-0.02438 0.267343,-0.02955 0.360028,-0.01039 0.238618,0.04935 0.433262,0.207121 0.524675,0.425288 0.04511,0.107665 0.06084,0.210061 0.05474,0.356326 -0.0061,0.146514 -0.02168,0.212973 -0.07567,0.323046 -0.132835,0.270819 -0.411226,0.420491 -0.7334,0.394299 z m 0.168128,-0.356193 c 0.129039,-0.03796 0.204399,-0.186936 0.204399,-0.404071 0,-0.193735 -0.06741,-0.335625 -0.184275,-0.387873 -0.05671,-0.02535 -0.180679,-0.02264 -0.237639,0.0052 -0.113835,0.05564 -0.173997,0.191343 -0.173591,0.391562 4.22e-4,0.208116 0.07102,0.348732 0.196917,0.392214 0.0645,0.02227 0.125392,0.02321 0.194189,0.003 z m -4.214337,0.350691 c -0.594758,-0.0519 -1.152223,-0.342835 -1.511581,-0.788872 -0.255015,-0.316526 -0.412767,-0.680417 -0.472144,-1.089113 -0.02028,-0.139604 -0.0199,-0.431417 7.55e-4,-0.571262 0.146425,-0.991504 0.908156,-1.7372322 1.89971,-1.8598002 0.137882,-0.01704 0.407898,-0.01266 0.555213,0.009 0.991796,0.145915 1.744619,0.9333102 1.848184,1.9330582 0.01568,0.151332 0.0064,0.422665 -0.01945,0.567114 -0.08051,0.450357 -0.291943,0.85941 -0.605841,1.172081 -0.439195,0.437477 -1.094424,0.680179 -1.694844,0.627782 z m 0.357835,-0.198629 c 0.774482,-0.07672 1.433975,-0.602022 1.678666,-1.337097 0.114602,-0.344275 0.129724,-0.741586 0.04202,-1.103941 -0.153054,-0.63234 -0.657001,-1.178156 -1.279364,-1.385657 -0.358909,-0.1196632 -0.777866,-0.1345382 -1.137345,-0.04038 -0.330941,0.08668 -0.613001,0.247271 -0.86636,0.493257 -0.298482,0.289795 -0.483916,0.624011 -0.562798,1.014359 -0.169388,0.838206 0.202535,1.667096 0.944989,2.10606 0.232925,0.137713 0.511714,0.225282 0.817476,0.256773 0.07604,0.0078 0.267593,0.0061 0.362718,-0.0034 z m 3.221097,-2.904884 v -0.727504 h 0.174997 0.174997 l 0.0053,0.02685 c 0.0029,0.01477 0.01048,0.07959 0.01682,0.144036 0.0063,0.06445 0.01448,0.122866 0.01809,0.129814 0.0043,0.0083 0.02643,-0.01333 0.06452,-0.06308 0.100053,-0.130687 0.231307,-0.217909 0.380485,-0.252842 0.09991,-0.0234 0.290074,-0.01534 0.373284,0.01581 0.04504,0.01686 0.05984,0.02683 0.05638,0.03799 -0.0026,0.0083 -0.0221,0.087 -0.04338,0.174845 -0.02128,0.08784 -0.04067,0.161694 -0.04309,0.164113 -0.0024,0.0024 -0.03135,-0.0026 -0.06428,-0.01112 -0.08453,-0.0219 -0.200672,-0.02875 -0.269412,-0.01588 -0.06677,0.0125 -0.183174,0.06483 -0.234455,0.105404 -0.04353,0.03444 -0.109891,0.118266 -0.149894,0.189346 l -0.03067,0.0545 v 0.37761 0.377611 H 7.5678962 7.3530622 Z M 2.0407932,9.0476378 c -0.112713,-0.01998 -0.24011,-0.103646 -0.2988,-0.196234 -0.07945,-0.125333 -0.08383,-0.32526 -0.0099,-0.451413 0.0368,-0.0628 0.115653,-0.12863 0.207067,-0.172877 0.129474,-0.062669 0.365885,-0.1148556 0.59752,-0.1318992 0.04985,-0.00367 0.09228,-0.00934 0.09429,-0.012594 0.007,-0.011412 -0.02176,-0.079478 -0.04847,-0.1144906 -0.01581,-0.020733 -0.04958,-0.04593 -0.08171,-0.060968 -0.05008,-0.023444 -0.06516,-0.025606 -0.176817,-0.025348 -0.112495,2.597e-4 -0.129161,0.00278 -0.21259,0.0322 -0.04979,0.017555 -0.117901,0.044869 -0.15136,0.060698 -0.03346,0.015829 -0.06595,0.028783 -0.0722,0.028787 -0.0062,4.2e-6 -0.03432,-0.042837 -0.06238,-0.095203 -0.02806,-0.052366 -0.06169,-0.1136861 -0.07475,-0.1362678 l -0.02374,-0.041057 0.0799,-0.040172 c 0.186605,-0.093822 0.359276,-0.1428825 0.537198,-0.1526332 0.319103,-0.017488 0.555271,0.095902 0.653958,0.3139815 0.06083,0.1344214 0.0614,0.1402927 0.06565,0.6764603 l 0.0039,0.490923 -0.178499,-0.0027 -0.178498,-0.0027 -0.01354,-0.07568 c -0.0074,-0.04162 -0.01807,-0.07568 -0.02362,-0.07568 -0.0055,0 -0.037,0.01798 -0.0699,0.03996 -0.0789,0.0527 -0.20182,0.111151 -0.274656,0.130607 -0.07348,0.01963 -0.217491,0.02674 -0.288072,0.01423 z m 0.394686,-0.349697 c 0.03108,-0.01092 0.08902,-0.04012 0.128749,-0.06489 l 0.07224,-0.04503 v -0.12137 c 0,-0.140421 0.01578,-0.127401 -0.134656,-0.111088 -0.200219,0.02171 -0.329868,0.06732 -0.380662,0.133915 -0.03187,0.04178 -0.04004,0.113737 -0.0178,0.15674 0.03906,0.07554 0.195179,0.09985 0.332135,0.05171 z m 5.322817,0.34592 c -0.218551,-0.04003 -0.415695,-0.180744 -0.510879,-0.364636 -0.06385,-0.12336 -0.08158,-0.193438 -0.08717,-0.344577 -0.0064,-0.173268 0.01033,-0.261116 0.07521,-0.3946138 0.09358,-0.192574 0.253183,-0.3225043 0.469138,-0.3819208 0.08794,-0.024195 0.292735,-0.024257 0.380277,-1.153e-4 0.257719,0.071074 0.439445,0.2473616 0.519651,0.5041001 0.02034,0.065097 0.02283,0.091692 0.02241,0.2392468 -4.31e-4,0.153813 -0.0024,0.171746 -0.0268,0.244129 -0.01449,0.04297 -0.04397,0.109758 -0.06551,0.148426 -0.145732,0.261558 -0.467378,0.406553 -0.776322,0.349961 z m 0.231367,-0.348746 c 0.052,-0.01558 0.120708,-0.07822 0.150689,-0.137391 0.07261,-0.143286 0.0693,-0.391747 -0.0071,-0.5351355 -0.05483,-0.1028695 -0.131275,-0.1417468 -0.263773,-0.1341453 -0.05837,0.00335 -0.08418,0.01001 -0.119907,0.030949 -0.0954,0.055908 -0.152508,0.1970315 -0.152232,0.3761918 3.12e-4,0.202949 0.07244,0.353855 0.18884,0.395118 0.04975,0.01764 0.151972,0.01985 0.203508,0.0044 z M 4.3649012,7.9937424 V 6.9684002 h 0.214759 0.214758 l 0.0025,0.5971724 0.0025,0.5971723 0.267831,-0.2944523 0.26783,-0.2944523 h 0.234337 0.234336 l -0.01999,0.021972 c -0.011,0.012084 -0.130923,0.1406183 -0.266503,0.285631 -0.13558,0.1450127 -0.248578,0.2689333 -0.251108,0.275379 -0.0025,0.00645 0.124321,0.1972215 0.28189,0.4239455 0.157569,0.226724 0.290003,0.418096 0.294298,0.425271 0.0064,0.01074 -0.03325,0.01299 -0.224599,0.01275 l -0.232415,-2.96e-4 -0.185538,-0.292249 c -0.102046,-0.160737 -0.188291,-0.292433 -0.191656,-0.292659 -0.0034,-2.26e-4 -0.0528,0.04964 -0.109858,0.110821 l -0.10374,0.111231 v 0.181724 0.181724 h -0.214834 -0.214834 z"
         id="path2981" /><path
         id="path2983"
         style="display:inline;fill:#000000;stroke:#000000;stroke-width:0.294866"
         d="M 5.9099324,11.970913 A 1.9287153,1.9715691 0 0 1 3.9812172,13.942482 1.9287153,1.9715691 0 0 1 2.0525021,11.970913 1.9287153,1.9715691 0 0 1 3.9812172,9.999346 1.9287153,1.9715691 0 0 1 5.9099324,11.970913 Z"
         inkscape:label="in1cut" /></g></g></svg>
