(footprint "panel_silkscreen" (version 20211014) (generator pcbnew)
  (layer "F.Cu")
  (tedit 0)
  (fp_text reference "REF**" (at 0 -0.5 unlocked) (layer "F.SilkS") hide
    (effects (font (size 1 1) (thickness 0.15)))
    (tstamp de4601eb-cb25-4053-acb0-c7477fa26a4c)
  )
  (fp_text value "panel_silkscreen" (at 0 1 unlocked) (layer "F.Fab")
    (effects (font (size 1 1) (thickness 0.15)))
    (tstamp f7dc4321-201b-4020-be72-f93d07550512)
  )
  (fp_poly (pts
      (xy 2.960837 47.572526)
      (xy 2.944116 47.640729)
      (xy 2.916614 47.744407)
      (xy 2.880135 47.876884)
      (xy 2.836479 48.031482)
      (xy 2.797658 48.166398)
      (xy 2.746451 48.342994)
      (xy 2.697728 48.511089)
      (xy 2.653999 48.662014)
      (xy 2.617778 48.787098)
      (xy 2.591574 48.877673)
      (xy 2.581008 48.914266)
      (xy 2.541345 49.051879)
      (xy 2.303102 48.814626)
      (xy 2.064858 48.577373)
      (xy 1.865946 48.757709)
      (xy 1.763507 48.852205)
      (xy 1.657362 48.952781)
      (xy 1.564518 49.043229)
      (xy 1.531101 49.076827)
      (xy 1.395168 49.215609)
      (xy 1.51574 49.377895)
      (xy 1.680015 49.63733)
      (xy 1.795912 49.909723)
      (xy 1.864667 50.198879)
      (xy 1.887522 50.508599)
      (xy 1.887509 50.519089)
      (xy 1.862321 50.830319)
      (xy 1.790678 51.124186)
      (xy 1.675077 51.397277)
      (xy 1.518016 51.646178)
      (xy 1.321995 51.867475)
      (xy 1.089509 52.057753)
      (xy 0.823059 52.213598)
      (xy 0.572645 52.316137)
      (xy 0.405512 52.358497)
      (xy 0.208567 52.386227)
      (xy 0.000408 52.398352)
      (xy -0.200372 52.393896)
      (xy -0.375178 52.371885)
      (xy -0.397951 52.367023)
      (xy -0.695252 52.273639)
      (xy -0.971039 52.13442)
      (xy -1.222928 51.950701)
      (xy -1.344716 51.836969)
      (xy -1.444497 51.73295)
      (xy -1.519229 51.645456)
      (xy -1.581 51.557733)
      (xy -1.641897 51.453029)
      (xy -1.695617 51.350647)
      (xy -1.793708 51.122041)
      (xy -1.855203 50.885321)
      (xy -1.883244 50.626561)
      (xy -1.885799 50.507315)
      (xy -1.603407 50.507315)
      (xy -1.579266 50.791597)
      (xy -1.509157 51.059588)
      (xy -1.39655 51.307113)
      (xy -1.244916 51.529998)
      (xy -1.057726 51.724068)
      (xy -0.838449 51.88515)
      (xy -0.590556 52.009068)
      (xy -0.317518 52.091648)
      (xy -0.27996 52.099205)
      (xy -0.148467 52.112972)
      (xy 0.012415 52.1133)
      (xy 0.183372 52.101547)
      (xy 0.345089 52.07907)
      (xy 0.478251 52.047227)
      (xy 0.483395 52.045552)
      (xy 0.628067 51.993465)
      (xy 0.747047 51.938622)
      (xy 0.861256 51.869989)
      (xy 0.987288 51.779789)
      (xy 1.187361 51.598241)
      (xy 1.351637 51.383844)
      (xy 1.477212 51.142594)
      (xy 1.561182 50.880489)
      (xy 1.600645 50.603525)
      (xy 1.603407 50.507315)
      (xy 1.582513 50.226737)
      (xy 1.518495 49.970911)
      (xy 1.409347 49.735037)
      (xy 1.253063 49.514318)
      (xy 1.134947 49.386282)
      (xy 0.920884 49.200096)
      (xy 0.699246 49.06211)
      (xy 0.463634 48.969634)
      (xy 0.207653 48.91998)
      (xy 0 48.909223)
      (xy -0.275305 48.928736)
      (xy -0.525477 48.989069)
      (xy -0.756912 49.09291)
      (xy -0.976008 49.242948)
      (xy -1.134947 49.386282)
      (xy -1.320683 49.600172)
      (xy -1.458071 49.826315)
      (xy -1.549117 50.069512)
      (xy -1.595827 50.334561)
      (xy -1.603407 50.507315)
      (xy -1.885799 50.507315)
      (xy -1.8658 50.206912)
      (xy -1.804761 49.932124)
      (xy -1.700591 49.6758)
      (xy -1.586159 49.481253)
      (xy -1.532347 49.39974)
      (xy -1.49101 49.334649)
      (xy -1.469286 49.297299)
      (xy -1.467718 49.293475)
      (xy -1.483144 49.271658)
      (xy -1.528109 49.218779)
      (xy -1.597419 49.140446)
      (xy -1.685881 49.042268)
      (xy -1.788303 48.929853)
      (xy -1.89949 48.808811)
      (xy -2.014251 48.684751)
      (xy -2.127393 48.563281)
      (xy -2.233721 48.450009)
      (xy -2.328044 48.350545)
      (xy -2.405168 48.270497)
      (xy -2.4599 48.215474)
      (xy -2.487047 48.191085)
      (xy -2.488964 48.19047)
      (xy -2.486173 48.215888)
      (xy -2.474267 48.279469)
      (xy -2.455729 48.369816)
      (xy -2.433044 48.475529)
      (xy -2.408697 48.585211)
      (xy -2.38517 48.687462)
      (xy -2.364948 48.770884)
      (xy -2.351801 48.819863)
      (xy -2.355491 48.851472)
      (xy -2.394961 48.875976)
      (xy -2.444562 48.891526)
      (xy -2.510209 48.907201)
      (xy -2.550647 48.913052)
      (xy -2.555981 48.911943)
      (xy -2.565206 48.882748)
      (xy -2.583014 48.812672)
      (xy -2.607605 48.709829)
      (xy -2.637178 48.58233)
      (xy -2.669931 48.438289)
      (xy -2.704064 48.285817)
      (xy -2.737775 48.133027)
      (xy -2.769265 47.98803)
      (xy -2.796731 47.85894)
      (xy -2.818373 47.753869)
      (xy -2.83239 47.680928)
      (xy -2.83698 47.648231)
      (xy -2.83674 47.647295)
      (xy -2.810714 47.651337)
      (xy -2.744108 47.667972)
      (xy -2.644995 47.694828)
      (xy -2.521446 47.729531)
      (xy -2.381536 47.769709)
      (xy -2.233335 47.812989)
      (xy -2.084916 47.856998)
      (xy -1.944351 47.899362)
      (xy -1.819713 47.93771)
      (xy -1.719074 47.969667)
      (xy -1.650507 47.992862)
      (xy -1.623368 48.003977)
      (xy -1.608831 48.03983)
      (xy -1.613311 48.108766)
      (xy -1.61393 48.112143)
      (xy -1.626143 48.161433)
      (xy -1.646229 48.190421)
      (xy -1.682964 48.199906)
      (xy -1.745126 48.190687)
      (xy -1.841489 48.163564)
      (xy -1.917115 48.13975)
      (xy -2.026429 48.106064)
      (xy -2.131301 48.075805)
      (xy -2.21122 48.054862)
      (xy -2.219193 48.053021)
      (xy -2.322093 48.029901)
      (xy -2.247578 48.110592)
      (xy -2.208814 48.152383)
      (xy -2.141406 48.224858)
      (xy -2.051435 48.321485)
      (xy -1.944986 48.435732)
      (xy -1.82814 48.561069)
      (xy -1.769498 48.623948)
      (xy -1.653072 48.748814)
      (xy -1.547137 48.862515)
      (xy -1.457016 48.95933)
      (xy -1.388032 49.03354)
      (xy -1.345507 49.079425)
      (xy -1.33529 49.090554)
      (xy -1.311421 49.103665)
      (xy -1.275147 49.093759)
      (xy -1.216534 49.056687)
      (xy -1.167705 49.020585)
      (xy -0.910085 48.851443)
      (xy -0.644737 48.730959)
      (xy -0.365054 48.656903)
      (xy -0.064432 48.627043)
      (xy 0 48.626177)
      (xy 0.276113 48.641782)
      (xy 0.526975 48.691284)
      (xy 0.765529 48.778711)
      (xy 1.004714 48.908092)
      (xy 1.095964 48.967403)
      (xy 1.237518 49.063195)
      (xy 1.574771 48.73113)
      (xy 1.912023 48.399065)
      (xy 1.67631 48.162368)
      (xy 1.589856 48.074024)
      (xy 1.519426 47.999114)
      (xy 1.471326 47.944572)
      (xy 1.451865 47.917337)
      (xy 1.452012 47.915732)
      (xy 1.479783 47.906353)
      (xy 1.549222 47.887224)
      (xy 1.652978 47.860141)
      (xy 1.783698 47.826896)
      (xy 1.934031 47.789285)
      (xy 2.096626 47.749102)
      (xy 2.264131 47.70814)
      (xy 2.429195 47.668194)
      (xy 2.584467 47.631058)
      (xy 2.722594 47.598527)
      (xy 2.836227 47.572394)
      (xy 2.918012 47.554454)
      (xy 2.960599 47.546501)
      (xy 2.964977 47.546474)
    ) (layer "F.SilkS") (width 0) (fill solid) (tstamp 05caf25c-c251-45e5-a29a-73a0b9eeb795))
  (fp_poly (pts
      (xy 3.022518 57.767185)
      (xy 3.029104 59.122445)
      (xy 2.748122 59.122445)
      (xy 2.611094 59.120418)
      (xy 2.519787 59.113971)
      (xy 2.469168 59.10256)
      (xy 2.454958 59.090631)
      (xy 2.452736 59.059712)
      (xy 2.450895 58.98277)
      (xy 2.449455 58.864683)
      (xy 2.448435 58.710328)
      (xy 2.447856 58.524583)
      (xy 2.447737 58.312326)
      (xy 2.448099 58.078434)
      (xy 2.448962 57.827785)
      (xy 2.449394 57.735371)
      (xy 2.456012 56.411924)
      (xy 3.015932 56.411924)
    ) (layer "F.SilkS") (width 0) (fill solid) (tstamp 08d667cc-ce51-4b65-83e8-f482b4ae2c64))
  (fp_poly (pts
      (xy 2.972128 -17.549783)
      (xy 2.968691 -17.522956)
      (xy 2.952643 -17.453338)
      (xy 2.925585 -17.347016)
      (xy 2.889121 -17.210076)
      (xy 2.844851 -17.048605)
      (xy 2.79438 -16.868689)
      (xy 2.773785 -16.796323)
      (xy 2.56228 -16.056026)
      (xy 2.330511 -16.286831)
      (xy 2.241467 -16.37364)
      (xy 2.164153 -16.445539)
      (xy 2.106176 -16.495697)
      (xy 2.075149 -16.517282)
      (xy 2.073389 -16.517635)
      (xy 2.047983 -16.500429)
      (xy 1.993253 -16.452707)
      (xy 1.915499 -16.380313)
      (xy 1.82102 -16.289089)
      (xy 1.733389 -16.202233)
      (xy 1.418744 -15.886831)
      (xy 1.512262 -15.764354)
      (xy 1.628992 -15.584448)
      (xy 1.732344 -15.373005)
      (xy 1.813409 -15.149191)
      (xy 1.835519 -15.06889)
      (xy 1.860096 -14.959849)
      (xy 1.87473 -14.860731)
      (xy 1.880812 -14.754074)
      (xy 1.879737 -14.622418)
      (xy 1.877164 -14.547147)
      (xy 1.853299 -14.280362)
      (xy 1.801582 -14.044174)
      (xy 1.718082 -13.824247)
      (xy 1.635872 -13.667574)
      (xy 1.553601 -13.547398)
      (xy 1.442116 -13.413522)
      (xy 1.313604 -13.278314)
      (xy 1.180253 -13.15414)
      (xy 1.054251 -13.053368)
      (xy 0.986955 -13.009111)
      (xy 0.703759 -12.869844)
      (xy 0.411559 -12.777555)
      (xy 0.115225 -12.733134)
      (xy -0.180373 -12.737468)
      (xy -0.356312 -12.764036)
      (xy -0.625562 -12.83599)
      (xy -0.864543 -12.938268)
      (xy -1.084891 -13.077197)
      (xy -1.298242 -13.259102)
      (xy -1.337192 -13.297288)
      (xy -1.539664 -13.52747)
      (xy -1.693793 -13.767378)
      (xy -1.801981 -14.022766)
      (xy -1.86663 -14.299385)
      (xy -1.890144 -14.602988)
      (xy -1.890296 -14.621543)
      (xy -1.889738 -14.629158)
      (xy -1.60303 -14.629158)
      (xy -1.596163 -14.434203)
      (xy -1.571819 -14.268012)
      (xy -1.525492 -14.110125)
      (xy -1.452672 -13.940084)
      (xy -1.449929 -13.934369)
      (xy -1.304832 -13.688543)
      (xy -1.125402 -13.477404)
      (xy -0.916553 -13.303226)
      (xy -0.683199 -13.168283)
      (xy -0.430253 -13.07485)
      (xy -0.162631 -13.025199)
      (xy 0.114753 -13.021605)
      (xy 0.396986 -13.066342)
      (xy 0.415709 -13.071062)
      (xy 0.663592 -13.160542)
      (xy 0.894452 -13.293701)
      (xy 1.102548 -13.464584)
      (xy 1.282138 -13.667233)
      (xy 1.427481 -13.895693)
      (xy 1.532837 -14.144007)
      (xy 1.566755 -14.26523)
      (xy 1.592774 -14.440341)
      (xy 1.598558 -14.641053)
      (xy 1.584985 -14.846654)
      (xy 1.552935 -15.036429)
      (xy 1.5306 -15.117836)
      (xy 1.423903 -15.370908)
      (xy 1.27765 -15.597686)
      (xy 1.097276 -15.794962)
      (xy 0.888215 -15.959526)
      (xy 0.6559 -16.088169)
      (xy 0.405766 -16.177684)
      (xy 0.143247 -16.224862)
      (xy -0.126224 -16.226494)
      (xy -0.304265 -16.201261)
      (xy -0.586292 -16.119899)
      (xy -0.840448 -15.996509)
      (xy -1.064686 -15.83264)
      (xy -1.25696 -15.629842)
      (xy -1.415224 -15.389664)
      (xy -1.440932 -15.340622)
      (xy -1.532873 -15.118036)
      (xy -1.585752 -14.886401)
      (xy -1.603028 -14.63054)
      (xy -1.60303 -14.629158)
      (xy -1.889738 -14.629158)
      (xy -1.867809 -14.928633)
      (xy -1.798584 -15.222394)
      (xy -1.684359 -15.497493)
      (xy -1.526874 -15.748598)
      (xy -1.519517 -15.758307)
      (xy -1.431737 -15.873305)
      (xy -1.943875 -16.421557)
      (xy -2.073499 -16.55985)
      (xy -2.191559 -16.684899)
      (xy -2.293707 -16.792172)
      (xy -2.375596 -16.877137)
      (xy -2.432881 -16.935263)
      (xy -2.461214 -16.962017)
      (xy -2.463435 -16.963236)
      (xy -2.460751 -16.937983)
      (xy -2.448991 -16.874597)
      (xy -2.430639 -16.784519)
      (xy -2.408177 -16.679189)
      (xy -2.384087 -16.570046)
      (xy -2.360853 -16.468531)
      (xy -2.340956 -16.386083)
      (xy -2.326976 -16.334445)
      (xy -2.329952 -16.303012)
      (xy -2.36835 -16.278743)
      (xy -2.419111 -16.262783)
      (xy -2.484971 -16.247099)
      (xy -2.525823 -16.241256)
      (xy -2.531336 -16.242365)
      (xy -2.540785 -16.271178)
      (xy -2.558769 -16.34097)
      (xy -2.583485 -16.443619)
      (xy -2.613135 -16.571002)
      (xy -2.645916 -16.714997)
      (xy -2.68003 -16.86748)
      (xy -2.713675 -17.02033)
      (xy -2.745052 -17.165422)
      (xy -2.772359 -17.294636)
      (xy -2.793796 -17.399847)
      (xy -2.807563 -17.472934)
      (xy -2.81186 -17.505774)
      (xy -2.811581 -17.506722)
      (xy -2.782427 -17.503872)
      (xy -2.705202 -17.485372)
      (xy -2.580238 -17.451317)
      (xy -2.40787 -17.401803)
      (xy -2.188431 -17.336924)
      (xy -1.922255 -17.256777)
      (xy -1.73422 -17.199556)
      (xy -1.648206 -17.172255)
      (xy -1.601096 -17.150944)
      (xy -1.583064 -17.126903)
      (xy -1.584285 -17.091412)
      (xy -1.588355 -17.070099)
      (xy -1.606177 -17.007163)
      (xy -1.62665 -16.96778)
      (xy -1.626759 -16.967669)
      (xy -1.659195 -16.965617)
      (xy -1.731464 -16.977625)
      (xy -1.83502 -17.001928)
      (xy -1.961317 -17.036761)
      (xy -1.961449 -17.0368)
      (xy -2.07929 -17.070596)
      (xy -2.178039 -17.097508)
      (xy -2.248272 -17.115072)
      (xy -2.280566 -17.120824)
      (xy -2.281547 -17.120524)
      (xy -2.274732 -17.108315)
      (xy -2.247688 -17.075422)
      (xy -2.198356 -17.019605)
      (xy -2.124678 -16.938623)
      (xy -2.024594 -16.830236)
      (xy -1.896046 -16.692203)
      (xy -1.736975 -16.522285)
      (xy -1.545322 -16.318241)
      (xy -1.497988 -16.267918)
      (xy -1.275021 -16.030927)
      (xy -1.143782 -16.134666)
      (xy -0.90956 -16.288268)
      (xy -0.649281 -16.402794)
      (xy -0.370666 -16.477242)
      (xy -0.081438 -16.510613)
      (xy 0.210679 -16.501905)
      (xy 0.497963 -16.45012)
      (xy 0.72107 -16.376212)
      (xy 0.815737 -16.331518)
      (xy 0.929755 -16.268693)
      (xy 1.041497 -16.199801)
      (xy 1.063069 -16.185407)
      (xy 1.253542 -16.056173)
      (xy 1.333034 -16.127228)
      (xy 1.417631 -16.204822)
      (xy 1.512474 -16.294996)
      (xy 1.610623 -16.390757)
      (xy 1.705139 -16.48511)
      (xy 1.789083 -16.571063)
      (xy 1.855516 -16.641621)
      (xy 1.897499 -16.689791)
      (xy 1.908818 -16.707536)
      (xy 1.891796 -16.734388)
      (xy 1.845381 -16.78904)
      (xy 1.776552 -16.863679)
      (xy 1.692287 -16.950494)
      (xy 1.687446 -16.955363)
      (xy 1.603948 -17.040853)
      (xy 1.574177 -17.072701)
      (xy 1.884038 -17.072701)
      (xy 2.155609 -16.782443)
      (xy 2.249592 -16.683036)
      (xy 2.331572 -16.598294)
      (xy 2.395252 -16.534571)
      (xy 2.434336 -16.498221)
      (xy 2.443241 -16.492184)
      (xy 2.455336 -16.515332)
      (xy 2.478106 -16.579159)
      (xy 2.508807 -16.675247)
      (xy 2.544696 -16.795172)
      (xy 2.565078 -16.86621)
      (xy 2.601107 -16.996018)
      (xy 2.63073 -17.107406)
      (xy 2.651755 -17.191747)
      (xy 2.66199 -17.240415)
      (xy 2.662282 -17.248807)
      (xy 2.635915 -17.246123)
      (xy 2.568757 -17.233114)
      (xy 2.469443 -17.211618)
      (xy 2.346608 -17.183473)
      (xy 2.268874 -17.16504)
      (xy 1.884038 -17.072701)
      (xy 1.574177 -17.072701)
      (xy 1.536754 -17.112735)
      (xy 1.49235 -17.163841)
      (xy 1.47722 -17.187003)
      (xy 1.477476 -17.18744)
      (xy 1.506377 -17.197631)
      (xy 1.576774 -17.217362)
      (xy 1.681254 -17.244836)
      (xy 1.812404 -17.278256)
      (xy 1.962812 -17.315825)
      (xy 2.125065 -17.355745)
      (xy 2.291751 -17.39622)
      (xy 2.455456 -17.435453)
      (xy 2.608768 -17.471647)
      (xy 2.744275 -17.503005)
      (xy 2.854563 -17.527729)
      (xy 2.932221 -17.544023)
      (xy 2.969835 -17.550089)
    ) (layer "F.SilkS") (width 0) (fill solid) (tstamp 2819466e-756b-4a64-a966-ecc54b0443e7))
  (fp_poly (pts
      (xy 2.865273 -56.554379)
      (xy 2.952735 -56.540183)
      (xy 3.033661 -56.510659)
      (xy 3.070697 -56.492767)
      (xy 3.237366 -56.385593)
      (xy 3.360319 -56.253946)
      (xy 3.44109 -56.095258)
      (xy 3.481215 -55.906959)
      (xy 3.486525 -55.796963)
      (xy 3.484273 -55.684625)
      (xy 3.474053 -55.60211)
      (xy 3.451154 -55.528445)
      (xy 3.410863 -55.442654)
      (xy 3.403877 -55.429081)
      (xy 3.294826 -55.26975)
      (xy 3.155923 -55.148419)
      (xy 2.993993 -55.067792)
      (xy 2.815863 -55.030574)
      (xy 2.628357 -55.039469)
      (xy 2.50265 -55.071961)
      (xy 2.325235 -55.155081)
      (xy 2.188036 -55.268472)
      (xy 2.090347 -55.413195)
      (xy 2.031461 -55.590314)
      (xy 2.010694 -55.800693)
      (xy 2.468738 -55.800693)
      (xy 2.474516 -55.67822)
      (xy 2.4957 -55.587961)
      (xy 2.538062 -55.512149)
      (xy 2.578158 -55.463878)
      (xy 2.647285 -55.421446)
      (xy 2.739814 -55.406015)
      (xy 2.835383 -55.418587)
      (xy 2.898428 -55.448116)
      (xy 2.967969 -55.526691)
      (xy 3.012224 -55.643835)
      (xy 3.028615 -55.792562)
      (xy 3.028657 -55.801102)
      (xy 3.013173 -55.957037)
      (xy 2.967703 -56.075644)
      (xy 2.893721 -56.154846)
      (xy 2.792702 -56.192565)
      (xy 2.748698 -56.195591)
      (xy 2.635895 -56.174482)
      (xy 2.551663 -56.111579)
      (xy 2.49645 -56.007512)
      (xy 2.470706 -55.862916)
      (xy 2.468738 -55.800693)
      (xy 2.010694 -55.800693)
      (xy 2.010674 -55.800891)
      (xy 2.010621 -55.812962)
      (xy 2.013893 -55.926731)
      (xy 2.027124 -56.012994)
      (xy 2.055436 -56.094918)
      (xy 2.088493 -56.165139)
      (xy 2.191878 -56.325248)
      (xy 2.321643 -56.442707)
      (xy 2.479787 -56.518702)
      (xy 2.668308 -56.554422)
      (xy 2.749298 -56.557687)
    ) (layer "F.SilkS") (width 0) (fill solid) (tstamp 3f5bfaa6-a542-4985-93ec-edfb313334ef))
  (fp_poly (pts
      (xy 0.50519 -43.774114)
      (xy 0.795874 -43.71272)
      (xy 1.167279 -43.590379)
      (xy 1.518357 -43.423542)
      (xy 1.845282 -43.215693)
      (xy 2.144229 -42.970312)
      (xy 2.411372 -42.690881)
      (xy 2.642885 -42.380883)
      (xy 2.834943 -42.043798)
      (xy 2.963989 -41.739479)
      (xy 3.074561 -41.359954)
      (xy 3.136131 -40.973344)
      (xy 3.149277 -40.584098)
      (xy 3.114575 -40.196662)
      (xy 3.032602 -39.815485)
      (xy 2.903934 -39.445012)
      (xy 2.729149 -39.089693)
      (xy 2.591836 -38.870074)
      (xy 2.39384 -38.616303)
      (xy 2.156078 -38.372607)
      (xy 1.889685 -38.148619)
      (xy 1.605797 -37.95397)
      (xy 1.3998 -37.838902)
      (xy 1.079403 -37.70305)
      (xy 0.732277 -37.602728)
      (xy 0.369698 -37.539606)
      (xy 0.002939 -37.515351)
      (xy -0.356723 -37.531634)
      (xy -0.523343 -37.554306)
      (xy -0.906674 -37.643824)
      (xy -1.270726 -37.778601)
      (xy -1.612373 -37.955621)
      (xy -1.928491 -38.171874)
      (xy -2.215954 -38.424346)
      (xy -2.471636 -38.710025)
      (xy -2.692413 -39.025896)
      (xy -2.875158 -39.368948)
      (xy -3.016746 -39.736167)
      (xy -3.095921 -40.034268)
      (xy -3.123779 -40.211646)
      (xy -3.140285 -40.421914)
      (xy -3.145611 -40.649857)
      (xy -3.145055 -40.672392)
      (xy -1.885948 -40.672392)
      (xy -1.871333 -40.406045)
      (xy -1.834013 -40.205127)
      (xy -1.735099 -39.91915)
      (xy -1.592996 -39.656016)
      (xy -1.41176 -39.419618)
      (xy -1.195443 -39.213846)
      (xy -0.948101 -39.042593)
      (xy -0.673786 -38.90975)
      (xy -0.394489 -38.823269)
      (xy -0.240232 -38.800425)
      (xy -0.055408 -38.792837)
      (xy 0.142269 -38.799643)
      (xy 0.335084 -38.819982)
      (xy 0.505323 -38.852993)
      (xy 0.564161 -38.869886)
      (xy 0.846254 -38.987063)
      (xy 1.104 -39.145647)
      (xy 1.333023 -39.340919)
      (xy 1.528945 -39.568159)
      (xy 1.687388 -39.822646)
      (xy 1.803977 -40.099661)
      (xy 1.847148 -40.253339)
      (xy 1.874722 -40.433433)
      (xy 1.883211 -40.641721)
      (xy 1.873532 -40.859588)
      (xy 1.846604 -41.068422)
      (xy 1.803343 -41.249609)
      (xy 1.797089 -41.268637)
      (xy 1.673964 -41.554476)
      (xy 1.510629 -41.812539)
      (xy 1.311037 -42.039186)
      (xy 1.079141 -42.230774)
      (xy 0.818897 -42.383661)
      (xy 0.534257 -42.494206)
      (xy 0.438519 -42.520078)
      (xy 0.272927 -42.547851)
      (xy 0.079808 -42.560761)
      (xy -0.121008 -42.558882)
      (xy -0.309693 -42.542288)
      (xy -0.445391 -42.516756)
      (xy -0.737779 -42.417022)
      (xy -1.007759 -42.275176)
      (xy -1.250457 -42.09527)
      (xy -1.461001 -41.881358)
      (xy -1.63452 -41.637494)
      (xy -1.734383 -41.444307)
      (xy -1.816202 -41.207332)
      (xy -1.867148 -40.944757)
      (xy -1.885948 -40.672392)
      (xy -3.145055 -40.672392)
      (xy -3.139929 -40.88026)
      (xy -3.123409 -41.097908)
      (xy -3.096221 -41.287587)
      (xy -3.081058 -41.357715)
      (xy -2.958906 -41.753802)
      (xy -2.794832 -42.122478)
      (xy -2.590024 -42.46202)
      (xy -2.345673 -42.770705)
      (xy -2.062966 -43.046812)
      (xy -1.752858 -43.282119)
      (xy -1.4074 -43.482943)
      (xy -1.044128 -43.63716)
      (xy -0.667137 -43.744077)
      (xy -0.280523 -43.803003)
      (xy 0.111618 -43.813246)
    ) (layer "F.SilkS") (width 0) (fill solid) (tstamp 41eba9da-0e1f-4b91-8d12-b564e9b81b0f))
  (fp_poly (pts
      (xy 3.30907 -53.824657)
      (xy 3.406494 -53.800761)
      (xy 3.44306 -53.7883)
      (xy 3.465213 -53.775005)
      (xy 3.473558 -53.751026)
      (xy 3.468699 -53.706511)
      (xy 3.451241 -53.631608)
      (xy 3.423514 -53.523246)
      (xy 3.403572 -53.453879)
      (xy 3.38175 -53.422238)
      (xy 3.344569 -53.416487)
      (xy 3.30693 -53.420865)
      (xy 3.116538 -53.428252)
      (xy 2.954152 -53.393354)
      (xy 2.819075 -53.315925)
      (xy 2.722906 -53.213326)
      (xy 2.646894 -53.108395)
      (xy 2.646894 -52.327054)
      (xy 2.188778 -52.327054)
      (xy 2.188778 -53.803206)
      (xy 2.565543 -53.803206)
      (xy 2.58299 -53.652887)
      (xy 2.600436 -53.502568)
      (xy 2.693655 -53.605979)
      (xy 2.822666 -53.714777)
      (xy 2.976718 -53.789806)
      (xy 3.143092 -53.827592)
    ) (layer "F.SilkS") (width 0) (fill solid) (tstamp 7659eeda-908c-44b9-86f8-8215fb324a53))
  (fp_poly (pts
      (xy -2.765244 34.549645)
      (xy -2.699731 34.567751)
      (xy -2.601398 34.596214)
      (xy -2.478132 34.632639)
      (xy -2.337823 34.674628)
      (xy -2.188356 34.719786)
      (xy -2.03762 34.765716)
      (xy -1.893503 34.810023)
      (xy -1.763892 34.85031)
      (xy -1.656674 34.88418)
      (xy -1.579738 34.909238)
      (xy -1.540971 34.923087)
      (xy -1.537998 34.924661)
      (xy -1.539101 34.951607)
      (xy -1.551494 35.005418)
      (xy -1.569328 35.065029)
      (xy -1.586753 35.109377)
      (xy -1.591445 35.117109)
      (xy -1.616642 35.113292)
      (xy -1.681245 35.09742)
      (xy -1.775867 35.071946)
      (xy -1.891124 35.039321)
      (xy -1.908126 35.034394)
      (xy -2.027631 35.000196)
      (xy -2.129856 34.971939)
      (xy -2.204662 34.952354)
      (xy -2.241908 34.944174)
      (xy -2.243273 34.944088)
      (xy -2.232789 34.961782)
      (xy -2.191309 35.011835)
      (xy -2.1229 35.089708)
      (xy -2.031628 35.190859)
      (xy -1.92156 35.310748)
      (xy -1.796761 35.444835)
      (xy -1.754269 35.490117)
      (xy -1.240867 36.036145)
      (xy -1.088404 35.93261)
      (xy -0.830861 35.781434)
      (xy -0.56954 35.677616)
      (xy -0.294457 35.618102)
      (xy 0 35.599825)
      (xy 0.312202 35.624405)
      (xy 0.606638 35.696079)
      (xy 0.881468 35.814245)
      (xy 1.120985 35.967698)
      (xy 1.250944 36.06606)
      (xy 1.548067 35.78793)
      (xy 1.681123 35.664756)
      (xy 1.781154 35.571621)
      (xy 1.849935 35.501419)
      (xy 1.889244 35.447044)
      (xy 1.900859 35.40139)
      (xy 1.886556 35.357351)
      (xy 1.848111 35.307821)
      (xy 1.787303 35.245695)
      (xy 1.705907 35.163865)
      (xy 1.704491 35.162402)
      (xy 1.600292 35.051226)
      (xy 1.532602 34.970968)
      (xy 1.502113 34.92251)
      (xy 1.504675 34.90733)
      (xy 1.544881 34.895875)
      (xy 1.624616 34.875229)
      (xy 1.736491 34.847165)
      (xy 1.87312 34.813457)
      (xy 2.027116 34.775878)
      (xy 2.191092 34.736201)
      (xy 2.357662 34.696201)
      (xy 2.519438 34.657651)
      (xy 2.669034 34.622324)
      (xy 2.799062 34.591995)
      (xy 2.902136 34.568437)
      (xy 2.970869 34.553423)
      (xy 2.997874 34.548727)
      (xy 2.997985 34.548782)
      (xy 2.992751 34.573487)
      (xy 2.975398 34.63974)
      (xy 2.948012 34.74021)
      (xy 2.912679 34.867564)
      (xy 2.871483 35.014471)
      (xy 2.82651 35.1736)
      (xy 2.779844 35.337618)
      (xy 2.733572 35.499194)
      (xy 2.689778 35.650996)
      (xy 2.650547 35.785693)
      (xy 2.617965 35.895951)
      (xy 2.594116 35.974441)
      (xy 2.581985 36.011479)
      (xy 2.561546 36.013679)
      (xy 2.513205 35.981182)
      (xy 2.435248 35.912622)
      (xy 2.329358 35.810017)
      (xy 2.090273 35.571926)
      (xy 1.764125 35.884704)
      (xy 1.658363 35.986817)
      (xy 1.566022 36.077277)
      (xy 1.493164 36.150038)
      (xy 1.445854 36.199055)
      (xy 1.430188 36.217696)
      (xy 1.440388 36.247009)
      (xy 1.474756 36.302791)
      (xy 1.516784 36.360889)
      (xy 1.628416 36.533056)
      (xy 1.728509 36.739081)
      (xy 1.809314 36.96206)
      (xy 1.835427 37.055871)
      (xy 1.860783 37.167175)
      (xy 1.875539 37.266577)
      (xy 1.881191 37.37253)
      (xy 1.879239 37.503483)
      (xy 1.876759 37.564889)
      (xy 1.846915 37.85533)
      (xy 1.782424 38.115075)
      (xy 1.679414 38.352791)
      (xy 1.534014 38.577141)
      (xy 1.342352 38.796791)
      (xy 1.313345 38.82594)
      (xy 1.099093 39.014229)
      (xy 0.877479 39.158425)
      (xy 0.636929 39.26516)
      (xy 0.447682 39.321994)
      (xy 0.283597 39.351615)
      (xy 0.093466 39.367625)
      (xy -0.103786 39.369785)
      (xy -0.289229 39.357855)
      (xy -0.437649 39.333152)
      (xy -0.733467 39.236134)
      (xy -1.004568 39.096263)
      (xy -1.247384 38.916988)
      (xy -1.458347 38.701756)
      (xy -1.633888 38.454013)
      (xy -1.770441 38.177209)
      (xy -1.837377 37.980618)
      (xy -1.873099 37.806355)
      (xy -1.892293 37.605094)
      (xy -1.893786 37.476453)
      (xy -1.611875 37.476453)
      (xy -1.605476 37.665535)
      (xy -1.580491 37.831974)
      (xy -1.532377 37.995479)
      (xy -1.456589 38.175759)
      (xy -1.444982 38.200374)
      (xy -1.312684 38.421892)
      (xy -1.140157 38.622643)
      (xy -0.936003 38.795736)
      (xy -0.708829 38.934283)
      (xy -0.467239 39.031394)
      (xy -0.377494 39.055088)
      (xy -0.221904 39.077704)
      (xy -0.038793 39.084712)
      (xy 0.152624 39.076896)
      (xy 0.333131 39.055042)
      (xy 0.48351 39.019934)
      (xy 0.483567 39.019916)
      (xy 0.7399 38.91284)
      (xy 0.965298 38.769684)
      (xy 1.158507 38.595554)
      (xy 1.31827 38.395557)
      (xy 1.443332 38.174799)
      (xy 1.532438 37.938386)
      (xy 1.584331 37.691426)
      (xy 1.597756 37.439023)
      (xy 1.571457 37.186285)
      (xy 1.504179 36.938318)
      (xy 1.394666 36.700228)
      (xy 1.241663 36.477121)
      (xy 1.137282 36.361402)
      (xy 0.919238 36.174323)
      (xy 0.682209 36.034252)
      (xy 0.424893 35.94065)
      (xy 0.14599 35.89298)
      (xy -0.013741 35.886148)
      (xy -0.293643 35.906733)
      (xy -0.549312 35.970728)
      (xy -0.785334 36.08005)
      (xy -1.006299 36.236616)
      (xy -1.133758 36.354232)
      (xy -1.321087 36.57037)
      (xy -1.460004 36.795393)
      (xy -1.552894 37.034897)
      (xy -1.60214 37.294478)
      (xy -1.611875 37.476453)
      (xy -1.893786 37.476453)
      (xy -1.894723 37.395651)
      (xy -1.880152 37.196841)
      (xy -1.849314 37.031062)
      (xy -1.766508 36.789073)
      (xy -1.652638 36.553282)
      (xy -1.520383 36.348444)
      (xy -1.399105 36.18757)
      (xy -1.902108 35.651498)
      (xy -2.058109 35.486861)
      (xy -2.187786 35.35342)
      (xy -2.28959 35.25268)
      (xy -2.361969 35.186145)
      (xy -2.403376 35.155318)
      (xy -2.413071 35.155623)
      (xy -2.4106 35.195793)
      (xy -2.397722 35.273242)
      (xy -2.376656 35.375936)
      (xy -2.355807 35.46648)
      (xy -2.329336 35.578082)
      (xy -2.30803 35.671258)
      (xy -2.294359 35.734982)
      (xy -2.290581 35.757459)
      (xy -2.312732 35.775741)
      (xy -2.368145 35.796908)
      (xy -2.391592 35.803416)
      (xy -2.458021 35.816884)
      (xy -2.491366 35.811258)
      (xy -2.505627 35.787423)
      (xy -2.516789 35.745418)
      (xy -2.536417 35.665157)
      (xy -2.562653 35.55476)
      (xy -2.593639 35.422349)
      (xy -2.627517 35.276042)
      (xy -2.66243 35.123959)
      (xy -2.696519 34.974221)
      (xy -2.727927 34.834948)
      (xy -2.754796 34.714259)
      (xy -2.775269 34.620275)
      (xy -2.787486 34.561115)
      (xy -2.79005 34.544292)
    ) (layer "F.SilkS") (width 0) (fill solid) (tstamp 809ec06b-9c37-467a-987a-1f20ece16676))
  (fp_poly (pts
      (xy -3.691135 -44.699391)
      (xy -3.6392 -44.648845)
      (xy -3.561225 -44.570067)
      (xy -3.461574 -44.467531)
      (xy -3.344612 -44.345709)
      (xy -3.214704 -44.209074)
      (xy -3.151145 -44.141784)
      (xy -3.005632 -43.988818)
      (xy -2.877438 -43.856857)
      (xy -2.769802 -43.749069)
      (xy -2.685965 -43.668624)
      (xy -2.629166 -43.618689)
      (xy -2.602646 -43.602433)
      (xy -2.601145 -43.603903)
      (xy -2.603609 -43.642625)
      (xy -2.616032 -43.719304)
      (xy -2.636339 -43.822437)
      (xy -2.659548 -43.927948)
      (xy -2.684908 -44.041275)
      (xy -2.70441 -44.134681)
      (xy -2.716048 -44.1981)
      (xy -2.718022 -44.221383)
      (xy -2.691026 -44.2319)
      (xy -2.633375 -44.249321)
      (xy -2.615479 -44.254294)
      (xy -2.585836 -44.263702)
      (xy -2.56241 -44.270254)
      (xy -2.5432 -44.26882)
      (xy -2.526199 -44.254269)
      (xy -2.509406 -44.221473)
      (xy -2.490815 -44.165301)
      (xy -2.468424 -44.080622)
      (xy -2.440228 -43.962306)
      (xy -2.404223 -43.805224)
      (xy -2.358406 -43.604245)
      (xy -2.353926 -43.584669)
      (xy -2.317962 -43.428267)
      (xy -2.285182 -43.286901)
      (xy -2.257511 -43.168785)
      (xy -2.236878 -43.082138)
      (xy -2.22521 -43.035175)
      (xy -2.224076 -43.031112)
      (xy -2.222256 -42.995036)
      (xy -2.231601 -42.98839)
      (xy -2.260747 -42.996006)
      (xy -2.331741 -43.016464)
      (xy -2.437749 -43.047737)
      (xy -2.571939 -43.087798)
      (xy -2.727475 -43.134622)
      (xy -2.858365 -43.174275)
      (xy -3.024598 -43.225458)
      (xy -3.173512 -43.272625)
      (xy -3.298534 -43.313587)
      (xy -3.393094 -43.346154)
      (xy -3.45062 -43.368138)
      (xy -3.46556 -43.376579)
      (xy -3.462016 -43.420219)
      (xy -3.450654 -43.480549)
      (xy -3.436172 -43.537217)
      (xy -3.423268 -43.569871)
      (xy -3.420467 -43.571944)
      (xy -3.392463 -43.565002)
      (xy -3.325504 -43.546056)
      (xy -3.229332 -43.517919)
      (xy -3.113687 -43.483409)
      (xy -3.102168 -43.479939)
      (xy -2.985218 -43.446089)
      (xy -2.88661 -43.420202)
      (xy -2.816095 -43.404646)
      (xy -2.783419 -43.40179)
      (xy -2.782618 -43.402285)
      (xy -2.795877 -43.423576)
      (xy -2.84022 -43.477145)
      (xy -2.911579 -43.558459)
      (xy -3.005885 -43.662982)
      (xy -3.119069 -43.786179)
      (xy -3.247062 -43.923516)
      (xy -3.316167 -43.996945)
      (xy -3.864068 -44.577254)
      (xy -3.797914 -44.647244)
      (xy -3.750392 -44.69266)
      (xy -3.716701 -44.716284)
      (xy -3.712666 -44.717234)
    ) (layer "F.SilkS") (width 0) (fill solid) (tstamp 8fb94a92-84ed-4d91-909b-8ff726da93f7))
  (fp_poly (pts
      (xy -0.801998 -54.250055)
      (xy -0.499157 -54.16834)
      (xy -0.209964 -54.042185)
      (xy 0.060747 -53.872084)
      (xy 0.259271 -53.706103)
      (xy 0.485232 -53.459875)
      (xy 0.667924 -53.190981)
      (xy 0.806696 -52.904013)
      (xy 0.900901 -52.603561)
      (xy 0.949888 -52.294218)
      (xy 0.953007 -51.980574)
      (xy 0.909609 -51.66722)
      (xy 0.819045 -51.358749)
      (xy 0.680664 -51.059751)
      (xy 0.642936 -50.994357)
      (xy 0.543812 -50.848621)
      (xy 0.419717 -50.695723)
      (xy 0.283342 -50.549461)
      (xy 0.147377 -50.423629)
      (xy 0.047333 -50.34688)
      (xy -0.215525 -50.194268)
      (xy -0.49944 -50.075203)
      (xy -0.794456 -49.992119)
      (xy -1.090616 -49.94745)
      (xy -1.377961 -49.94363)
      (xy -1.53322 -49.960541)
      (xy -1.696627 -49.996312)
      (xy -1.882117 -50.052648)
      (xy -2.069237 -50.12225)
      (xy -2.237533 -50.197819)
      (xy -2.315218 -50.239605)
      (xy -2.566071 -50.407437)
      (xy -2.778642 -50.597578)
      (xy -2.916002 -50.755953)
      (xy -3.104408 -51.036193)
      (xy -3.246129 -51.33304)
      (xy -3.340833 -51.642131)
      (xy -3.388189 -51.959105)
      (xy -3.387865 -52.2796)
      (xy -3.33953 -52.599253)
      (xy -3.242854 -52.913703)
      (xy -3.102424 -53.209891)
      (xy -3.000911 -53.363051)
      (xy -2.866763 -53.526325)
      (xy -2.71271 -53.686745)
      (xy -2.551486 -53.831343)
      (xy -2.39582 -53.947149)
      (xy -2.351673 -53.974595)
      (xy -2.053126 -54.122548)
      (xy -1.74405 -54.223574)
      (xy -1.42928 -54.278168)
      (xy -1.113651 -54.28683)
    ) (layer "F.SilkS") (width 0) (fill solid) (tstamp 91ee2116-bb64-431e-b8b7-d2f56034a3f1))
  (fp_poly (pts
      (xy 3.893988 57.086373)
      (xy 4.50481 57.086373)
      (xy 4.50481 57.620842)
      (xy 3.888312 57.620842)
      (xy 3.897874 58.081274)
      (xy 3.901683 58.246006)
      (xy 3.905863 58.367302)
      (xy 3.911316 58.452625)
      (xy 3.918941 58.509438)
      (xy 3.929639 58.545203)
      (xy 3.944312 58.567384)
      (xy 3.957977 58.579232)
      (xy 4.034383 58.605571)
      (xy 4.097595 58.602816)
      (xy 4.17258 58.592436)
      (xy 4.272458 58.5803)
      (xy 4.345742 58.572215)
      (xy 4.50481 58.555556)
      (xy 4.50481 59.0655)
      (xy 4.383918 59.096582)
      (xy 4.287145 59.115165)
      (xy 4.168358 59.128947)
      (xy 4.042949 59.137168)
      (xy 3.926307 59.13907)
      (xy 3.833823 59.133894)
      (xy 3.79202 59.125759)
      (xy 3.622878 59.046083)
      (xy 3.48786 58.929002)
      (xy 3.394238 58.791583)
      (xy 3.378042 58.755513)
      (xy 3.365648 58.711131)
      (xy 3.356403 58.651012)
      (xy 3.34965 58.56773)
      (xy 3.344733 58.45386)
      (xy 3.340996 58.301976)
      (xy 3.33862 58.161673)
      (xy 3.330447 57.620842)
      (xy 3.130461 57.620842)
      (xy 3.130461 57.086373)
      (xy 3.334068 57.086373)
      (xy 3.334068 56.602806)
      (xy 3.893988 56.602806)
    ) (layer "F.SilkS") (width 0) (fill solid) (tstamp c5147233-a607-4ede-add2-b91d9b2d0b0f))
  (fp_poly (pts
      (xy 2.92898 -51.445493)
      (xy 3.080013 -51.396587)
      (xy 3.214682 -51.309272)
      (xy 3.266235 -51.263086)
      (xy 3.356195 -51.166865)
      (xy 3.416651 -51.074049)
      (xy 3.452872 -50.970621)
      (xy 3.47013 -50.842562)
      (xy 3.473826 -50.710922)
      (xy 3.472273 -50.586285)
      (xy 3.465685 -50.497391)
      (xy 3.451555 -50.429144)
      (xy 3.427377 -50.366446)
      (xy 3.411094 -50.333162)
      (xy 3.308431 -50.185391)
      (xy 3.172384 -50.069163)
      (xy 3.01206 -49.987991)
      (xy 2.836564 -49.945389)
      (xy 2.655003 -49.944873)
      (xy 2.499405 -49.981319)
      (xy 2.32298 -50.069417)
      (xy 2.178756 -50.196789)
      (xy 2.0997 -50.3041)
      (xy 2.062348 -50.369449)
      (xy 2.038676 -50.430069)
      (xy 2.024892 -50.501942)
      (xy 2.017207 -50.60105)
      (xy 2.014568 -50.663096)
      (xy 2.013535 -50.709669)
      (xy 2.468738 -50.709669)
      (xy 2.479147 -50.559262)
      (xy 2.513106 -50.448711)
      (xy 2.574712 -50.370839)
      (xy 2.668061 -50.318463)
      (xy 2.697796 -50.308211)
      (xy 2.773083 -50.305483)
      (xy 2.857866 -50.331045)
      (xy 2.911278 -50.36439)
      (xy 2.976553 -50.451597)
      (xy 3.016627 -50.575725)
      (xy 3.028657 -50.710922)
      (xy 3.013173 -50.866857)
      (xy 2.967703 -50.985464)
      (xy 2.893721 -51.064666)
      (xy 2.792702 -51.102384)
      (xy 2.748698 -51.105411)
      (xy 2.635866 -51.084327)
      (xy 2.551664 -51.021449)
      (xy 2.496486 -50.917336)
      (xy 2.470731 -50.772551)
      (xy 2.468738 -50.709669)
      (xy 2.013535 -50.709669)
      (xy 2.011914 -50.7827)
      (xy 2.016113 -50.868409)
      (xy 2.029565 -50.937032)
      (xy 2.054672 -51.00538)
      (xy 2.067583 -51.034374)
      (xy 2.169003 -51.202036)
      (xy 2.300385 -51.328706)
      (xy 2.460481 -51.413601)
      (xy 2.648041 -51.45594)
      (xy 2.748698 -51.460916)
    ) (layer "F.SilkS") (width 0) (fill solid) (tstamp ccc871d6-95f5-454e-ae2e-3d14299602b7))
  (fp_poly (pts
      (xy 3.947009 7.51019)
      (xy 4.018283 7.597094)
      (xy 3.637893 7.961987)
      (xy 3.257504 8.326879)
      (xy 3.48541 8.5725)
      (xy 3.581993 8.680094)
      (xy 3.648272 8.761654)
      (xy 3.681908 8.814083)
      (xy 3.682761 8.833609)
      (xy 3.650997 8.843378)
      (xy 3.576247 8.863376)
      (xy 3.465021 8.891953)
      (xy 3.323829 8.927461)
      (xy 3.159181 8.96825)
      (xy 2.977588 9.012672)
      (xy 2.935183 9.022969)
      (xy 2.218162 9.196841)
      (xy 2.358255 9.351377)
      (xy 2.587947 9.641541)
      (xy 2.783649 9.965908)
      (xy 2.942274 10.318229)
      (xy 3.060732 10.692257)
      (xy 3.095257 10.842084)
      (xy 3.118365 10.995185)
      (xy 3.133524 11.182323)
      (xy 3.140546 11.387227)
      (xy 3.139244 11.593629)
      (xy 3.129431 11.785256)
      (xy 3.110918 11.945841)
      (xy 3.108162 11.961924)
      (xy 3.013594 12.351175)
      (xy 2.8746 12.719145)
      (xy 2.694116 13.062906)
      (xy 2.475074 13.379532)
      (xy 2.220408 13.666098)
      (xy 1.933052 13.919675)
      (xy 1.615939 14.137339)
      (xy 1.272004 14.316163)
      (xy 0.904179 14.45322)
      (xy 0.518635 14.545021)
      (xy 0.346328 14.566305)
      (xy 0.142499 14.577721)
      (xy -0.074534 14.57932)
      (xy -0.286457 14.571152)
      (xy -0.474951 14.553268)
      (xy -0.547194 14.542074)
      (xy -0.936914 14.448054)
      (xy -1.300839 14.310706)
      (xy -1.641271 14.12882)
      (xy -1.960511 13.901188)
      (xy -2.230181 13.657637)
      (xy -2.500757 13.353105)
      (xy -2.725485 13.027039)
      (xy -2.903797 12.680796)
      (xy -3.035126 12.315735)
      (xy -3.118908 11.933214)
      (xy -3.154574 11.534589)
      (xy -3.155179 11.49135)
      (xy -1.898129 11.49135)
      (xy -1.863878 11.787593)
      (xy -1.78173 12.081743)
      (xy -1.673144 12.329522)
      (xy -1.535096 12.547334)
      (xy -1.355891 12.752633)
      (xy -1.145092 12.937202)
      (xy -0.912261 13.092822)
      (xy -0.666962 13.211277)
      (xy -0.631409 13.224704)
      (xy -0.407083 13.285893)
      (xy -0.157627 13.319056)
      (xy 0.099112 13.32344)
      (xy 0.345285 13.298289)
      (xy 0.470842 13.271295)
      (xy 0.755429 13.170484)
      (xy 1.018726 13.025905)
      (xy 1.256411 12.841783)
      (xy 1.464165 12.622339)
      (xy 1.637667 12.371798)
      (xy 1.772596 12.094381)
      (xy 1.823542 11.949199)
      (xy 1.844262 11.868553)
      (xy 1.858251 11.777366)
      (xy 1.866548 11.66414)
      (xy 1.870188 11.517376)
      (xy 1.870585 11.427455)
      (xy 1.869923 11.279424)
      (xy 1.866819 11.169266)
      (xy 1.859518 11.083955)
      (xy 1.846265 11.010467)
      (xy 1.825304 10.935776)
      (xy 1.794879 10.846859)
      (xy 1.790803 10.835436)
      (xy 1.709741 10.633487)
      (xy 1.618826 10.462424)
      (xy 1.507035 10.304789)
      (xy 1.36335 10.143124)
      (xy 1.336173 10.115217)
      (xy 1.098744 9.908132)
      (xy 0.840253 9.746584)
      (xy 0.563928 9.631588)
      (xy 0.272996 9.564156)
      (xy -0.029318 9.545302)
      (xy -0.339786 9.57604)
      (xy -0.365686 9.580825)
      (xy -0.656732 9.661544)
      (xy -0.926667 9.786031)
      (xy -1.171623 9.950165)
      (xy -1.387733 10.149823)
      (xy -1.571128 10.380883)
      (xy -1.717943 10.639222)
      (xy -1.82431 10.920717)
      (xy -1.883415 11.198749)
      (xy -1.898129 11.49135)
      (xy -3.155179 11.49135)
      (xy -3.155912 11.439029)
      (xy -3.131309 11.048595)
      (xy -3.059207 10.668202)
      (xy -2.942165 10.301926)
      (xy -2.782743 9.953838)
      (xy -2.583499 9.628012)
      (xy -2.346992 9.328521)
      (xy -2.075784 9.059438)
      (xy -1.772431 8.824836)
      (xy -1.439495 8.628789)
      (xy -1.368211 8.593915)
      (xy -1.023973 8.453856)
      (xy -0.674268 8.358365)
      (xy -0.309401 8.305345)
      (xy 0.025451 8.292121)
      (xy 0.423438 8.318583)
      (xy 0.809956 8.393884)
      (xy 1.181541 8.516739)
      (xy 1.534728 8.685862)
      (xy 1.866052 8.899968)
      (xy 2.042531 9.040558)
      (xy 2.127377 9.108205)
      (xy 2.180085 9.138054)
      (xy 2.201349 9.132342)
      (xy 2.211801 9.098858)
      (xy 2.234092 9.02406)
      (xy 2.265992 8.915555)
      (xy 2.305268 8.780947)
      (xy 2.349689 8.627841)
      (xy 2.368078 8.564229)
      (xy 2.417194 8.394322)
      (xy 2.465064 8.229031)
      (xy 2.508646 8.078833)
      (xy 2.544899 7.954209)
      (xy 2.570782 7.865638)
      (xy 2.574896 7.851645)
      (xy 2.627363 7.673531)
      (xy 2.863031 7.927068)
      (xy 3.098698 8.180605)
      (xy 3.875736 7.423285)
    ) (layer "F.SilkS") (width 0) (fill solid) (tstamp cdab3a5a-126a-416a-8fe4-900a45399bdd))
  (fp_poly (pts
      (xy -2.548418 -56.542671)
      (xy -2.390967 -56.482635)
      (xy -2.261855 -56.389647)
      (xy -2.16823 -56.26648)
      (xy -2.16472 -56.259796)
      (xy -2.142871 -56.215325)
      (xy -2.126404 -56.172973)
      (xy -2.114417 -56.124659)
      (xy -2.106005 -56.0623)
      (xy -2.100266 -55.977815)
      (xy -2.096296 -55.863123)
      (xy -2.093192 -55.710142)
      (xy -2.091494 -55.604662)
      (xy -2.083288 -55.075751)
      (xy -2.276013 -55.075751)
      (xy -2.374317 -55.076994)
      (xy -2.432194 -55.082509)
      (xy -2.460095 -55.094974)
      (xy -2.468469 -55.117068)
      (xy -2.468737 -55.125151)
      (xy -2.475129 -55.167669)
      (xy -2.499486 -55.18402)
      (xy -2.549577 -55.174109)
      (xy -2.633173 -55.137843)
      (xy -2.663986 -55.122782)
      (xy -2.833262 -55.057961)
      (xy -2.996679 -55.031651)
      (xy -3.144733 -55.044735)
      (xy -3.220592 -55.071084)
      (xy -3.320269 -55.134757)
      (xy -3.406504 -55.219967)
      (xy -3.46479 -55.311148)
      (xy -3.477161 -55.346328)
      (xy -3.486829 -55.44824)
      (xy -3.482337 -55.491997)
      (xy -3.052432 -55.491997)
      (xy -3.033262 -55.431079)
      (xy -3.009569 -55.408652)
      (xy -2.92369 -55.384302)
      (xy -2.81462 -55.390432)
      (xy -2.698814 -55.425592)
      (xy -2.671375 -55.438427)
      (xy -2.603198 -55.476201)
      (xy -2.568502 -55.512223)
      (xy -2.55431 -55.565548)
      (xy -2.550058 -55.616583)
      (xy -2.547557 -55.689589)
      (xy -2.556093 -55.72515)
      (xy -2.581227 -55.736427)
      (xy -2.60096 -55.737077)
      (xy -2.68498 -55.728477)
      (xy -2.785648 -55.707003)
      (xy -2.885187 -55.677721)
      (xy -2.965822 -55.6457)
      (xy -3.004103 -55.622134)
      (xy -3.04254 -55.562446)
      (xy -3.052432 -55.491997)
      (xy -3.482337 -55.491997)
      (xy -3.47486 -55.564822)
      (xy -3.445094 -55.672515)
      (xy -3.414291 -55.732039)
      (xy -3.331368 -55.810714)
      (xy -3.204041 -55.880328)
      (xy -3.038356 -55.938601)
      (xy -2.840357 -55.983255)
      (xy -2.691433 -56.004555)
      (xy -2.612886 -56.017331)
      (xy -2.559769 -56.033431)
      (xy -2.54509 -56.045874)
      (xy -2.561594 -56.079112)
      (xy -2.601895 -56.127354)
      (xy -2.60756 -56.133121)
      (xy -2.650408 -56.168335)
      (xy -2.700474 -56.187326)
      (xy -2.77467 -56.19475)
      (xy -2.834509 -56.195591)
      (xy -3.010211 -56.178179)
      (xy -3.117735 -56.144689)
      (xy -3.192531 -56.115186)
      (xy -3.250593 -56.096814)
      (xy -3.268506 -56.093787)
      (xy -3.297005 -56.114513)
      (xy -3.337838 -56.168179)
      (xy -3.371946 -56.225007)
      (xy -3.410878 -56.299119)
      (xy -3.426681 -56.3424)
      (xy -3.421356 -56.368281)
      (xy -3.396907 -56.390196)
      (xy -3.396601 -56.39042)
      (xy -3.320597 -56.432236)
      (xy -3.209992 -56.475945)
      (xy -3.080562 -56.516174)
      (xy -2.948087 -56.54755)
      (xy -2.919751 -56.552792)
      (xy -2.727062 -56.566981)
    ) (layer "F.SilkS") (width 0) (fill solid) (tstamp cdd498fa-913b-4277-b153-0d98bbc8a765))
  (fp_poly (pts
      (xy 1.537763 57.070046)
      (xy 1.708944 57.118387)
      (xy 1.8614 57.204624)
      (xy 1.987207 57.313395)
      (xy 2.103678 57.453009)
      (xy 2.186824 57.60974)
      (xy 2.241714 57.794888)
      (xy 2.263978 57.930497)
      (xy 2.274881 58.17715)
      (xy 2.245518 58.405329)
      (xy 2.178663 58.610934)
      (xy 2.077085 58.789861)
      (xy 1.943557 58.93801)
      (xy 1.780852 59.051279)
      (xy 1.591739 59.125566)
      (xy 1.437976 59.152883)
      (xy 1.331974 59.156391)
      (xy 1.216099 59.150868)
      (xy 1.176542 59.146433)
      (xy 0.979155 59.095168)
      (xy 0.805533 59.002045)
      (xy 0.658495 58.871599)
      (xy 0.540862 58.708365)
      (xy 0.455452 58.516879)
      (xy 0.405085 58.301675)
      (xy 0.394561 58.104409)
      (xy 0.985888 58.104409)
      (xy 0.997228 58.287246)
      (xy 1.032448 58.426836)
      (xy 1.093348 58.525791)
      (xy 1.181728 58.586729)
      (xy 1.299386 58.612263)
      (xy 1.336173 58.613427)
      (xy 1.430806 58.607356)
      (xy 1.498385 58.584481)
      (xy 1.549808 58.548164)
      (xy 1.607834 58.483873)
      (xy 1.647024 58.399836)
      (xy 1.66994 58.286899)
      (xy 1.679147 58.135907)
      (xy 1.679618 58.084503)
      (xy 1.668757 57.90669)
      (xy 1.634458 57.772045)
      (xy 1.57455 57.677492)
      (xy 1.486864 57.619952)
      (xy 1.369229 57.59635)
      (xy 1.334693 57.595391)
      (xy 1.20928 57.612044)
      (xy 1.113502 57.663695)
      (xy 1.045622 57.75288)
      (xy 1.003901 57.882136)
      (xy 0.986601 58.054)
      (xy 0.985888 58.104409)
      (xy 0.394561 58.104409)
      (xy 0.392581 58.067289)
      (xy 0.406043 57.907164)
      (xy 0.459012 57.677833)
      (xy 0.549153 57.480315)
      (xy 0.673627 57.317213)
      (xy 0.82959 57.19113)
      (xy 1.014204 57.10467)
      (xy 1.224626 57.060436)
      (xy 1.336173 57.054964)
    ) (layer "F.SilkS") (width 0) (fill solid) (tstamp cf2f9e6f-6cf2-4a2f-b91f-495139457064))
  (fp_poly (pts
      (xy 3.886865 -44.747467)
      (xy 3.931117 -44.701851)
      (xy 3.939502 -44.691536)
      (xy 3.997741 -44.617752)
      (xy 3.621366 -44.249724)
      (xy 3.24499 -43.881697)
      (xy 3.471824 -43.649516)
      (xy 3.558777 -43.557207)
      (xy 3.62533 -43.479946)
      (xy 3.666167 -43.424342)
      (xy 3.67597 -43.397006)
      (xy 3.675431 -43.396387)
      (xy 3.64551 -43.385021)
      (xy 3.572689 -43.363427)
      (xy 3.463536 -43.333373)
      (xy 3.324621 -43.296623)
      (xy 3.162512 -43.254943)
      (xy 2.983778 -43.210098)
      (xy 2.96503 -43.205455)
      (xy 2.783715 -43.160519)
      (xy 2.617121 -43.11907)
      (xy 2.472073 -43.08282)
      (xy 2.3554 -43.05348)
      (xy 2.273929 -43.032761)
      (xy 2.234487 -43.022376)
      (xy 2.233317 -43.022032)
      (xy 2.196538 -43.023624)
      (xy 2.188778 -43.037583)
      (xy 2.195575 -43.068994)
      (xy 2.214541 -43.141287)
      (xy 2.243534 -43.247043)
      (xy 2.26543 -43.325295)
      (xy 2.501729 -43.325295)
      (xy 2.535423 -43.326365)
      (xy 2.536215 -43.326602)
      (xy 2.577703 -43.337751)
      (xy 2.657806 -43.358177)
      (xy 2.765672 -43.385148)
      (xy 2.89045 -43.415933)
      (xy 2.914128 -43.421733)
      (xy 3.037708 -43.452805)
      (xy 3.143203 -43.480918)
      (xy 3.220846 -43.50335)
      (xy 3.260871 -43.517382)
      (xy 3.263658 -43.519071)
      (xy 3.253076 -43.541628)
      (xy 3.211662 -43.593145)
      (xy 3.145134 -43.667153)
      (xy 3.05921 -43.757184)
      (xy 3.003631 -43.813304)
      (xy 2.907522 -43.907883)
      (xy 2.8246 -43.987149)
      (xy 2.761183 -44.045246)
      (xy 2.723594 -44.076317)
      (xy 2.716143 -44.079686)
      (xy 2.706241 -44.052322)
      (xy 2.685247 -43.98533)
      (xy 2.656001 -43.88804)
      (xy 2.621342 -43.769783)
      (xy 2.611974 -43.737375)
      (xy 2.575639 -43.611365)
      (xy 2.543525 -43.500065)
      (xy 2.518712 -43.414145)
      (xy 2.504281 -43.364274)
      (xy 2.502881 -43.359461)
      (xy 2.501729 -43.325295)
      (xy 2.26543 -43.325295)
      (xy 2.280414 -43.378842)
      (xy 2.323041 -43.529267)
      (xy 2.369275 -43.690897)
      (xy 2.416975 -43.856313)
      (xy 2.464001 -44.018097)
      (xy 2.508212 -44.168829)
      (xy 2.547468 -44.301089)
      (xy 2.579628 -44.40746)
      (xy 2.602553 -44.480521)
      (xy 2.614102 -44.512853)
      (xy 2.614606 -44.513627)
      (xy 2.635489 -44.501163)
      (xy 2.684286 -44.458027)
      (xy 2.754099 -44.390689)
      (xy 2.838036 -44.305615)
      (xy 2.853779 -44.289264)
      (xy 3.081238 -44.052176)
      (xy 3.20129 -44.153827)
      (xy 3.264846 -44.210658)
      (xy 3.352971 -44.293526)
      (xy 3.454745 -44.391981)
      (xy 3.559247 -44.495571)
      (xy 3.575374 -44.511806)
      (xy 3.668321 -44.603746)
      (xy 3.749784 -44.68087)
      (xy 3.812632 -44.736685)
      (xy 3.849732 -44.764696)
      (xy 3.855334 -44.766728)
    ) (layer "F.SilkS") (width 0) (fill solid) (tstamp dd7ab9c9-8949-4e78-bffd-2e42ad4f31d7))
  (fp_poly (pts
      (xy 2.869001 -30.65832)
      (xy 2.864441 -30.63292)
      (xy 2.847791 -30.565925)
      (xy 2.8211 -30.464639)
      (xy 2.786419 -30.336364)
      (xy 2.745797 -30.188403)
      (xy 2.701283 -30.028061)
      (xy 2.654928 -29.862641)
      (xy 2.60878 -29.699446)
      (xy 2.564889 -29.545779)
      (xy 2.525306 -29.408944)
      (xy 2.492078 -29.296244)
      (xy 2.467257 -29.214983)
      (xy 2.452891 -29.172464)
      (xy 2.450829 -29.168222)
      (xy 2.431137 -29.18138)
      (xy 2.383329 -29.225289)
      (xy 2.314059 -29.293524)
      (xy 2.229982 -29.379661)
      (xy 2.207234 -29.403444)
      (xy 1.972445 -29.649902)
      (xy 1.317175 -29.014536)
      (xy 1.447873 -28.855214)
      (xy 1.628452 -28.598482)
      (xy 1.760445 -28.327053)
      (xy 1.844537 -28.03902)
      (xy 1.881409 -27.732475)
      (xy 1.883367 -27.639679)
      (xy 1.860008 -27.324995)
      (xy 1.789659 -27.029647)
      (xy 1.671913 -26.752451)
      (xy 1.506362 -26.492222)
      (xy 1.473925 -26.450205)
      (xy 1.27592 -26.240118)
      (xy 1.044191 -26.06278)
      (xy 0.786361 -25.921256)
      (xy 0.510057 -25.81861)
      (xy 0.222904 -25.757907)
      (xy -0.067473 -25.742212)
      (xy -0.250596 -25.757081)
      (xy -0.545505 -25.821682)
      (xy -0.820221 -25.929329)
      (xy -1.071377 -26.075718)
      (xy -1.295606 -26.256542)
      (xy -1.489541 -26.467499)
      (xy -1.649817 -26.704282)
      (xy -1.773065 -26.962588)
      (xy -1.85592 -27.238111)
      (xy -1.895014 -27.526548)
      (xy -1.894406 -27.549038)
      (xy -1.600955 -27.549038)
      (xy -1.595026 -27.417739)
      (xy -1.578994 -27.306266)
      (xy -1.567904 -27.257259)
      (xy -1.477105 -26.9963)
      (xy -1.343406 -26.755297)
      (xy -1.17215 -26.539687)
      (xy -0.968679 -26.354905)
      (xy -0.738334 -26.206385)
      (xy -0.486459 -26.099562)
      (xy -0.407214 -26.076385)
      (xy -0.276326 -26.053312)
      (xy -0.114463 -26.04145)
      (xy 0.059693 -26.040821)
      (xy 0.227461 -26.051447)
      (xy 0.370159 -26.073348)
      (xy 0.379519 -26.07549)
      (xy 0.635874 -26.161349)
      (xy 0.873631 -26.290869)
      (xy 1.087274 -26.458517)
      (xy 1.271287 -26.658763)
      (xy 1.420152 -26.886073)
      (xy 1.528353 -27.134915)
      (xy 1.565181 -27.264413)
      (xy 1.590844 -27.424144)
      (xy 1.601279 -27.606913)
      (xy 1.596491 -27.791517)
      (xy 1.576487 -27.956753)
      (xy 1.564978 -28.009733)
      (xy 1.471667 -28.280286)
      (xy 1.338043 -28.523889)
      (xy 1.16852 -28.73729)
      (xy 0.967515 -28.917235)
      (xy 0.739442 -29.060474)
      (xy 0.488719 -29.163754)
      (xy 0.219761 -29.223822)
      (xy -0.063016 -29.237427)
      (xy -0.09957 -29.235672)
      (xy -0.382196 -29.194652)
      (xy -0.646423 -29.107752)
      (xy -0.888215 -28.977923)
      (xy -1.103537 -28.808119)
      (xy -1.288353 -28.60129)
      (xy -1.438628 -28.360391)
      (xy -1.509067 -28.20446)
      (xy -1.545145 -28.105895)
      (xy -1.56923 -28.017416)
      (xy -1.584412 -27.921998)
      (xy -1.593777 -27.802616)
      (xy -1.597773 -27.715376)
      (xy -1.600955 -27.549038)
      (xy -1.894406 -27.549038)
      (xy -1.88698 -27.823592)
      (xy -1.884393 -27.846025)
      (xy -1.828445 -28.130669)
      (xy -1.729838 -28.403814)
      (xy -1.585648 -28.672456)
      (xy -1.465639 -28.848597)
      (xy -1.456677 -28.864974)
      (xy -1.455887 -28.884596)
      (xy -1.466671 -28.911722)
      (xy -1.492431 -28.950615)
      (xy -1.536571 -29.005533)
      (xy -1.602494 -29.080737)
      (xy -1.693601 -29.180487)
      (xy -1.813297 -29.309045)
      (xy -1.948443 -29.453073)
      (xy -2.07882 -29.591193)
      (xy -2.197212 -29.71547)
      (xy -2.299378 -29.821543)
      (xy -2.381076 -29.905052)
      (xy -2.438066 -29.961637)
      (xy -2.466107 -29.986938)
      (xy -2.468298 -29.987542)
      (xy -2.462642 -29.956819)
      (xy -2.447504 -29.886565)
      (xy -2.4251 -29.786789)
      (xy -2.397644 -29.6675)
      (xy -2.393637 -29.6503)
      (xy -2.367034 -29.529515)
      (xy -2.347432 -29.427039)
      (xy -2.336508 -29.352757)
      (xy -2.335937 -29.316557)
      (xy -2.336813 -29.315056)
      (xy -2.37158 -29.299368)
      (xy -2.433902 -29.283407)
      (xy -2.443779 -29.281512)
      (xy -2.533351 -29.265074)
      (xy -2.678807 -29.894988)
      (xy -2.717901 -30.066519)
      (xy -2.752154 -30.221141)
      (xy -2.780157 -30.352123)
      (xy -2.800497 -30.452732)
      (xy -2.811764 -30.516236)
      (xy -2.813161 -30.536004)
      (xy -2.786772 -30.532016)
      (xy -2.718456 -30.514935)
      (xy -2.614935 -30.486633)
      (xy -2.482934 -30.448984)
      (xy -2.329175 -30.403861)
      (xy -2.202627 -30.365938)
      (xy -2.036695 -30.315936)
      (xy -1.887364 -30.271221)
      (xy -1.761391 -30.233793)
      (xy -1.665535 -30.205652)
      (xy -1.606553 -30.188799)
      (xy -1.590576 -30.184769)
      (xy -1.579082 -30.163415)
      (xy -1.58055 -30.11166)
      (xy -1.593679 -30.047968)
      (xy -1.601936 -30.023206)
      (xy -1.625916 -29.960133)
      (xy -1.786455 -30.0103)
      (xy -1.9012 -30.045199)
      (xy -2.031842 -30.083546)
      (xy -2.122094 -30.109188)
      (xy -2.297194 -30.157908)
      (xy -2.249348 -30.10298)
      (xy -2.199031 -30.046728)
      (xy -2.124913 -29.965853)
      (xy -2.032441 -29.866118)
      (xy -1.927063 -29.753287)
      (xy -1.814223 -29.633122)
      (xy -1.69937 -29.511386)
      (xy -1.587948 -29.393844)
      (xy -1.485406 -29.286256)
      (xy -1.397189 -29.194388)
      (xy -1.328744 -29.124001)
      (xy -1.285517 -29.080859)
      (xy -1.272979 -29.069867)
      (xy -1.242835 -29.080084)
      (xy -1.186434 -29.114498)
      (xy -1.12829 -29.156434)
      (xy -0.986168 -29.250473)
      (xy -0.814983 -29.340889)
      (xy -0.634876 -29.418354)
      (xy -0.465988 -29.473541)
      (xy -0.41994 -29.484482)
      (xy -0.234742 -29.511138)
      (xy -0.025772 -29.520962)
      (xy 0.184789 -29.514016)
      (xy 0.374759 -29.490361)
      (xy 0.414916 -29.482183)
      (xy 0.541653 -29.4456)
      (xy 0.692123 -29.38968)
      (xy 0.847207 -29.322562)
      (xy 0.987787 -29.252386)
      (xy 1.07336 -29.201886)
      (xy 1.141409 -29.157299)
      (xy 1.474212 -29.470319)
      (xy 1.580883 -29.571352)
      (xy 1.673382 -29.660302)
      (xy 1.74581 -29.731388)
      (xy 1.792272 -29.778829)
      (xy 1.807014 -29.796587)
      (xy 1.790774 -29.819265)
      (xy 1.746396 -29.871739)
      (xy 1.680396 -29.946518)
      (xy 1.599288 -30.036113)
      (xy 1.587361 -30.049125)
      (xy 1.505697 -30.139689)
      (xy 1.472512 -30.178028)
      (xy 1.778499 -30.178028)
      (xy 1.849446 -30.098683)
      (xy 1.946498 -29.992696)
      (xy 2.045433 -29.88907)
      (xy 2.139861 -29.794001)
      (xy 2.223392 -29.713688)
      (xy 2.289633 -29.654326)
      (xy 2.332194 -29.622114)
      (xy 2.344315 -29.618843)
      (xy 2.357123 -29.648858)
      (xy 2.380565 -29.718705)
      (xy 2.411723 -29.819152)
      (xy 2.44768 -29.940966)
      (xy 2.462832 -29.993888)
      (xy 2.498048 -30.120522)
      (xy 2.52675 -30.228675)
      (xy 2.546689 -30.309467)
      (xy 2.555614 -30.35402)
      (xy 2.555528 -30.359802)
      (xy 2.529265 -30.357272)
      (xy 2.462296 -30.344014)
      (xy 2.36323 -30.321916)
      (xy 2.240673 -30.292864)
      (xy 2.162797 -30.273716)
      (xy 1.778499 -30.178028)
      (xy 1.472512 -30.178028)
      (xy 1.439463 -30.216211)
      (xy 1.394809 -30.271355)
      (xy 1.377881 -30.297786)
      (xy 1.378114 -30.298821)
      (xy 1.405472 -30.308242)
      (xy 1.474554 -30.327264)
      (xy 1.577939 -30.354098)
      (xy 1.70821 -30.386954)
      (xy 1.857947 -30.424045)
      (xy 2.019733 -30.463581)
      (xy 2.186147 -30.503773)
      (xy 2.349773 -30.542832)
      (xy 2.50319 -30.57897)
      (xy 2.638981 -30.610398)
      (xy 2.749727 -30.635327)
      (xy 2.828009 -30.651967)
      (xy 2.866408 -30.658531)
    ) (layer "F.SilkS") (width 0) (fill solid) (tstamp e43f9815-5d4b-4d3e-8e8b-af5ca206df02))
  (fp_poly (pts
      (xy 2.968785 -4.496813)
      (xy 2.964864 -4.470714)
      (xy 2.94867 -4.403152)
      (xy 2.922284 -4.301499)
      (xy 2.887788 -4.173129)
      (xy 2.847263 -4.025413)
      (xy 2.802793 -3.865724)
      (xy 2.756458 -3.701435)
      (xy 2.71034 -3.539918)
      (xy 2.666521 -3.388547)
      (xy 2.627083 -3.254692)
      (xy 2.594108 -3.145728)
      (xy 2.569677 -3.069026)
      (xy 2.555872 -3.031959)
      (xy 2.554587 -3.029967)
      (xy 2.533479 -3.042506)
      (xy 2.483619 -3.084909)
      (xy 2.412049 -3.150847)
      (xy 2.325812 -3.233995)
      (xy 2.308859 -3.250713)
      (xy 2.074249 -3.482875)
      (xy 1.74688 -3.171885)
      (xy 1.419512 -2.860896)
      (xy 1.559119 -2.655869)
      (xy 1.698451 -2.423267)
      (xy 1.795892 -2.191618)
      (xy 1.854695 -1.949235)
      (xy 1.878109 -1.68443)
      (xy 1.876695 -1.514329)
      (xy 1.848255 -1.220404)
      (xy 1.784164 -0.95755)
      (xy 1.680719 -0.71721)
      (xy 1.534221 -0.490829)
      (xy 1.340967 -0.269851)
      (xy 1.336249 -0.265073)
      (xy 1.11033 -0.06513)
      (xy 0.871511 0.088709)
      (xy 0.611444 0.201035)
      (xy 0.369038 0.266968)
      (xy 0.162393 0.295248)
      (xy -0.063301 0.300626)
      (xy -0.282253 0.283146)
      (xy -0.381763 0.265714)
      (xy -0.683108 0.176073)
      (xy -0.959575 0.043617)
      (xy -1.20775 -0.129081)
      (xy -1.424221 -0.339447)
      (xy -1.605577 -0.584908)
      (xy -1.677674 -0.711592)
      (xy -1.79732 -0.994374)
      (xy -1.869588 -1.28742)
      (xy -1.894569 -1.581629)
      (xy -1.60303 -1.581629)
      (xy -1.591227 -1.356191)
      (xy -1.551637 -1.154449)
      (xy -1.479151 -0.955497)
      (xy -1.420165 -0.833418)
      (xy -1.270797 -0.599791)
      (xy -1.083457 -0.39838)
      (xy -0.861418 -0.231573)
      (xy -0.607956 -0.101758)
      (xy -0.326345 -0.011324)
      (xy -0.278212 -0.000524)
      (xy -0.142926 0.015215)
      (xy 0.021705 0.014999)
      (xy 0.197195 0.000281)
      (xy 0.365057 -0.027487)
      (xy 0.489736 -0.06087)
      (xy 0.602468 -0.102775)
      (xy 0.716369 -0.151378)
      (xy 0.801704 -0.193504)
      (xy 0.906605 -0.264678)
      (xy 1.026837 -0.366917)
      (xy 1.150702 -0.488153)
      (xy 1.266502 -0.616317)
      (xy 1.36254 -0.73934)
      (xy 1.420442 -0.831889)
      (xy 1.519165 -1.070759)
      (xy 1.580378 -1.331364)
      (xy 1.602285 -1.59957)
      (xy 1.583089 -1.861242)
      (xy 1.563781 -1.959719)
      (xy 1.479541 -2.210951)
      (xy 1.351117 -2.448515)
      (xy 1.184916 -2.664387)
      (xy 0.98734 -2.850544)
      (xy 0.764795 -2.998964)
      (xy 0.712625 -3.025998)
      (xy 0.446947 -3.130061)
      (xy 0.176912 -3.185806)
      (xy -0.092424 -3.194938)
      (xy -0.356005 -3.159163)
      (xy -0.608775 -3.080187)
      (xy -0.845679 -2.959716)
      (xy -1.06166 -2.799455)
      (xy -1.251664 -2.60111)
      (xy -1.410635 -2.366387)
      (xy -1.447475 -2.297205)
      (xy -1.532843 -2.089)
      (xy -1.583638 -1.866695)
      (xy -1.602728 -1.617105)
      (xy -1.60303 -1.581629)
      (xy -1.894569 -1.581629)
      (xy -1.894858 -1.58503)
      (xy -1.87351 -1.881502)
      (xy -1.805923 -2.171134)
      (xy -1.692477 -2.448225)
      (xy -1.546061 -2.689787)
      (xy -1.469887 -2.796308)
      (xy -1.530284 -2.871031)
      (xy -1.587096 -2.937897)
      (xy -1.665897 -3.025861)
      (xy -1.761338 -3.12941)
      (xy -1.86807 -3.24303)
      (xy -1.980746 -3.361206)
      (xy -2.094015 -3.478427)
      (xy -2.202529 -3.589178)
      (xy -2.300939 -3.687946)
      (xy -2.383898 -3.769218)
      (xy -2.446056 -3.827479)
      (xy -2.482064 -3.857216)
      (xy -2.488876 -3.859154)
      (xy -2.486293 -3.8221)
      (xy -2.473576 -3.747247)
      (xy -2.452889 -3.646187)
      (xy -2.431611 -3.55238)
      (xy -2.405367 -3.438447)
      (xy -2.384242 -3.341286)
      (xy -2.370685 -3.272519)
      (xy -2.366934 -3.245566)
      (xy -2.388913 -3.218928)
      (xy -2.441128 -3.199068)
      (xy -2.502995 -3.189873)
      (xy -2.55393 -3.195228)
      (xy -2.570715 -3.207095)
      (xy -2.583596 -3.243129)
      (xy -2.603908 -3.316988)
      (xy -2.628503 -3.416705)
      (xy -2.646533 -3.495269)
      (xy -2.675483 -3.623579)
      (xy -2.711632 -3.781331)
      (xy -2.750356 -3.948454)
      (xy -2.786811 -4.103958)
      (xy -2.814954 -4.229019)
      (xy -2.835993 -4.334323)
      (xy -2.848381 -4.411087)
      (xy -2.850571 -4.450531)
      (xy -2.848456 -4.453908)
      (xy -2.819982 -4.446932)
      (xy -2.751068 -4.427605)
      (xy -2.649765 -4.398332)
      (xy -2.52412 -4.361516)
      (xy -2.382183 -4.31956)
      (xy -2.232002 -4.274867)
      (xy -2.081626 -4.229841)
      (xy -1.939104 -4.186884)
      (xy -1.812485 -4.148402)
      (xy -1.709818 -4.116795)
      (xy -1.639151 -4.094469)
      (xy -1.608533 -4.083826)
      (xy -1.608005 -4.083515)
      (xy -1.606118 -4.055113)
      (xy -1.620668 -4.001915)
      (xy -1.644349 -3.942233)
      (xy -1.669854 -3.894379)
      (xy -1.689877 -3.876664)
      (xy -1.690467 -3.876843)
      (xy -1.731719 -3.890458)
      (xy -1.808563 -3.914228)
      (xy -1.907689 -3.944184)
      (xy -2.015787 -3.976355)
      (xy -2.119547 -4.006771)
      (xy -2.205659 -4.031462)
      (xy -2.247292 -4.042942)
      (xy -2.283729 -4.051788)
      (xy -2.303306 -4.051579)
      (xy -2.302802 -4.037236)
      (xy -2.278995 -4.00368)
      (xy -2.228666 -3.945832)
      (xy -2.148592 -3.858613)
      (xy -2.091225 -3.796841)
      (xy -1.972653 -3.669914)
      (xy -1.835576 -3.524151)
      (xy -1.696804 -3.377378)
      (xy -1.573144 -3.247418)
      (xy -1.570824 -3.24499)
      (xy -1.303182 -2.96503)
      (xy -1.230599 -3.032291)
      (xy -1.085377 -3.14537)
      (xy -0.904269 -3.252898)
      (xy -0.702251 -3.347272)
      (xy -0.494296 -3.420889)
      (xy -0.430842 -3.438338)
      (xy -0.306967 -3.459363)
      (xy -0.149978 -3.470781)
      (xy 0.023289 -3.472782)
      (xy 0.195999 -3.465558)
      (xy 0.351316 -3.4493)
      (xy 0.458116 -3.428246)
      (xy 0.605792 -3.379786)
      (xy 0.768603 -3.311992)
      (xy 0.928988 -3.233273)
      (xy 1.069387 -3.15204)
      (xy 1.144832 -3.099383)
      (xy 1.258902 -3.010691)
      (xy 1.596489 -3.331066)
      (xy 1.934077 -3.651441)
      (xy 1.700062 -3.886432)
      (xy 1.614219 -3.974868)
      (xy 1.573926 -4.018884)
      (xy 1.881895 -4.018884)
      (xy 2.155831 -3.728254)
      (xy 2.250098 -3.630376)
      (xy 2.332455 -3.548895)
      (xy 2.396661 -3.489666)
      (xy 2.436477 -3.458545)
      (xy 2.446097 -3.455836)
      (xy 2.458566 -3.485568)
      (xy 2.481949 -3.555208)
      (xy 2.513361 -3.655668)
      (xy 2.549917 -3.777861)
      (xy 2.567385 -3.837892)
      (xy 2.604136 -3.965847)
      (xy 2.63527 -4.075308)
      (xy 2.658319 -4.157518)
      (xy 2.670817 -4.203719)
      (xy 2.672345 -4.210506)
      (xy 2.649082 -4.20778)
      (xy 2.584768 -4.194218)
      (xy 2.487621 -4.171789)
      (xy 2.365853 -4.142462)
      (xy 2.227682 -4.108205)
      (xy 2.081322 -4.070987)
      (xy 1.978072 -4.044141)
      (xy 1.881895 -4.018884)
      (xy 1.573926 -4.018884)
      (xy 1.544952 -4.050536)
      (xy 1.498481 -4.106309)
      (xy 1.481025 -4.135059)
      (xy 1.481528 -4.136905)
      (xy 1.510348 -4.147777)
      (xy 1.580717 -4.168065)
      (xy 1.685187 -4.195966)
      (xy 1.816311 -4.229678)
      (xy 1.966642 -4.2674)
      (xy 2.128734 -4.307329)
      (xy 2.295138 -4.347662)
      (xy 2.458409 -4.386599)
      (xy 2.611097 -4.422335)
      (xy 2.745758 -4.453071)
      (xy 2.854943 -4.477002)
      (xy 2.931205 -4.492328)
      (xy 2.967098 -4.497245)
    ) (layer "F.SilkS") (width 0) (fill solid) (tstamp e6522bb3-e27c-4970-b28c-8bdd6f174912))
  (fp_poly (pts
      (xy -3.379983 57.061868)
      (xy -3.289842 57.086847)
      (xy -3.192266 57.125905)
      (xy -3.102922 57.171418)
      (xy -3.037478 57.215766)
      (xy -3.016023 57.238931)
      (xy -2.987383 57.241622)
      (xy -2.932413 57.217358)
      (xy -2.906541 57.201443)
      (xy -2.739335 57.11434)
      (xy -2.557012 57.067069)
      (xy -2.392385 57.055436)
      (xy -2.203541 57.071707)
      (xy -2.047851 57.124426)
      (xy -1.920131 57.216554)
      (xy -1.815201 57.351051)
      (xy -1.786674 57.401462)
      (xy -1.717936 57.531764)
      (xy -1.710233 58.327104)
      (xy -1.70253 59.122445)
      (xy -2.260372 59.122445)
      (xy -2.269114 58.413703)
      (xy -2.272368 58.193073)
      (xy -2.276272 58.018375)
      (xy -2.281115 57.88464)
      (xy -2.287186 57.786901)
      (xy -2.294774 57.72019)
      (xy -2.304169 57.679537)
      (xy -2.312786 57.662902)
      (xy -2.370071 57.629643)
      (xy -2.457688 57.618701)
      (xy -2.560638 57.629231)
      (xy -2.663926 57.660388)
      (xy -2.714648 57.685542)
      (xy -2.82505 57.750242)
      (xy -2.82505 59.122445)
      (xy -3.37969 59.122445)
      (xy -3.388692 58.41372)
      (xy -3.39203 58.193027)
      (xy -3.396003 58.018272)
      (xy -3.400903 57.884495)
      (xy -3.40702 57.786734)
      (xy -3.414643 57.720027)
      (xy -3.424064 57.679413)
      (xy -3.432625 57.662919)
      (xy -3.489906 57.629649)
      (xy -3.577518 57.618699)
      (xy -3.680467 57.629226)
      (xy -3.78376 57.660385)
      (xy -3.834487 57.685542)
      (xy -3.94489 57.750242)
      (xy -3.94489 59.122445)
      (xy -4.504809 59.122445)
      (xy -4.504809 57.086373)
      (xy -4.22485 57.086373)
      (xy -4.099857 57.087424)
      (xy -4.017575 57.091334)
      (xy -3.969843 57.099232)
      (xy -3.9485 57.112253)
      (xy -3.94489 57.125203)
      (xy -3.939254 57.149264)
      (xy -3.913323 57.146274)
      (xy -3.874386 57.127574)
      (xy -3.753874 57.083671)
      (xy -3.608546 57.057641)
      (xy -3.462322 57.052664)
    ) (layer "F.SilkS") (width 0) (fill solid) (tstamp e7040a26-b878-491c-8d4c-e258db9400b6))
  (fp_poly (pts
      (xy 2.964402 21.509625)
      (xy 2.960418 21.535839)
      (xy 2.943836 21.604192)
      (xy 2.916449 21.708001)
      (xy 2.880055 21.840582)
      (xy 2.836449 21.995251)
      (xy 2.797658 22.130126)
      (xy 2.746451 22.306722)
      (xy 2.697728 22.474817)
      (xy 2.653999 22.625741)
      (xy 2.617778 22.750825)
      (xy 2.591574 22.8414)
      (xy 2.581008 22.877994)
      (xy 2.541345 23.015606)
      (xy 2.303229 22.77848)
      (xy 2.065112 22.541353)
      (xy 1.916975 22.670781)
      (xy 1.831384 22.74832)
      (xy 1.727765 22.84623)
      (xy 1.623315 22.948142)
      (xy 1.580603 22.990966)
      (xy 1.392369 23.181724)
      (xy 1.486819 23.291914)
      (xy 1.571411 23.408699)
      (xy 1.657725 23.558824)
      (xy 1.737763 23.725662)
      (xy 1.803528 23.892588)
      (xy 1.846107 24.038815)
      (xy 1.875534 24.239012)
      (xy 1.883307 24.462625)
      (xy 1.870326 24.691031)
      (xy 1.837489 24.90561)
      (xy 1.79698 25.056413)
      (xy 1.67442 25.34162)
      (xy 1.512051 25.598967)
      (xy 1.313823 25.824787)
      (xy 1.083686 26.015413)
      (xy 0.825589 26.167177)
      (xy 0.543482 26.276412)
      (xy 0.458116 26.29952)
      (xy 0.330661 26.324057)
      (xy 0.180899 26.342663)
      (xy 0.027471 26.353907)
      (xy -0.110981 26.356356)
      (xy -0.203607 26.350368)
      (xy -0.513647 26.285557)
      (xy -0.801915 26.177185)
      (xy -1.064744 26.028169)
      (xy -1.298464 25.841424)
      (xy -1.499407 25.619868)
      (xy -1.663903 25.366417)
      (xy -1.785103 25.093054)
      (xy -1.863918 24.796341)
      (xy -1.893421 24.495854)
      (xy -1.888025 24.410675)
      (xy -1.600806 24.410675)
      (xy -1.598673 24.592056)
      (xy -1.583255 24.758321)
      (xy -1.564848 24.853821)
      (xy -1.474052 25.110639)
      (xy -1.339802 25.348808)
      (xy -1.167818 25.562561)
      (xy -0.963819 25.746127)
      (xy -0.733522 25.893738)
      (xy -0.482647 25.999625)
      (xy -0.407214 26.021611)
      (xy -0.280344 26.04412)
      (xy -0.122104 26.05646)
      (xy 0.048992 26.058594)
      (xy 0.21443 26.050479)
      (xy 0.355697 26.032079)
      (xy 0.395505 26.023327)
      (xy 0.631792 25.940059)
      (xy 0.859005 25.815608)
      (xy 1.067689 25.657522)
      (xy 1.24839 25.473348)
      (xy 1.391653 25.270633)
      (xy 1.431352 25.196393)
      (xy 1.53563 24.93097)
      (xy 1.5922 24.664058)
      (xy 1.603723 24.399966)
      (xy 1.57286 24.143001)
      (xy 1.502274 23.897471)
      (xy 1.394625 23.667685)
      (xy 1.252577 23.457951)
      (xy 1.078789 23.272576)
      (xy 0.875924 23.11587)
      (xy 0.646644 22.992139)
      (xy 0.39361 22.905692)
      (xy 0.119485 22.860838)
      (xy -0.015017 22.855352)
      (xy -0.266946 22.878171)
      (xy -0.521844 22.944784)
      (xy -0.766827 23.050616)
      (xy -0.98901 23.19109)
      (xy -1.013238 23.209828)
      (xy -1.19014 23.378377)
      (xy -1.345129 23.58253)
      (xy -1.469668 23.808777)
      (xy -1.555215 24.043609)
      (xy -1.565181 24.083051)
      (xy -1.589644 24.234299)
      (xy -1.600806 24.410675)
      (xy -1.888025 24.410675)
      (xy -1.874457 24.196476)
      (xy -1.807874 23.90309)
      (xy -1.694518 23.620581)
      (xy -1.535237 23.353829)
      (xy -1.46785 23.2639)
      (xy -1.378455 23.151146)
      (xy -1.510019 23.005201)
      (xy -1.627546 22.876066)
      (xy -1.751249 22.74232)
      (xy -1.876298 22.60896)
      (xy -1.99786 22.48099)
      (xy -2.111106 22.363408)
      (xy -2.211204 22.261215)
      (xy -2.293323 22.179411)
      (xy -2.352631 22.122998)
      (xy -2.384297 22.096975)
      (xy -2.388177 22.096269)
      (xy -2.38605 22.127765)
      (xy -2.374024 22.198455)
      (xy -2.354046 22.298028)
      (xy -2.328062 22.416173)
      (xy -2.326652 22.422328)
      (xy -2.300895 22.540276)
      (xy -2.281712 22.639376)
      (xy -2.270867 22.709624)
      (xy -2.270121 22.741015)
      (xy -2.270442 22.741451)
      (xy -2.302617 22.75437)
      (xy -2.363585 22.768067)
      (xy -2.374707 22.769958)
      (xy -2.402951 22.775649)
      (xy -2.425376 22.778923)
      (xy -2.443951 22.774569)
      (xy -2.460645 22.757375)
      (xy -2.477426 22.722131)
      (xy -2.496263 22.663623)
      (xy -2.519125 22.576642)
      (xy -2.54798 22.455974)
      (xy -2.584796 22.29641)
      (xy -2.631544 22.092737)
      (xy -2.633128 22.085859)
      (xy -2.675801 21.89942)
      (xy -2.707488 21.756959)
      (xy -2.72897 21.65293)
      (xy -2.741028 21.58179)
      (xy -2.744443 21.537992)
      (xy -2.739997 21.515993)
      (xy -2.728472 21.510246)
      (xy -2.713708 21.513993)
      (xy -2.680191 21.524885)
      (xy -2.605226 21.548127)
      (xy -2.496132 21.581486)
      (xy -2.360228 21.62273)
      (xy -2.204836 21.669626)
      (xy -2.109249 21.69836)
      (xy -1.947063 21.747488)
      (xy -1.801261 21.7925)
      (xy -1.678901 21.831148)
      (xy -1.587047 21.861181)
      (xy -1.53276 21.880352)
      (xy -1.521198 21.885667)
      (xy -1.516744 21.915764)
      (xy -1.523946 21.971655)
      (xy -1.538277 22.032887)
      (xy -1.555212 22.079008)
      (xy -1.566713 22.091383)
      (xy -1.594241 22.084418)
      (xy -1.660606 22.065434)
      (xy -1.755969 22.037301)
      (xy -1.870491 22.002885)
      (xy -1.874964 22.001529)
      (xy -1.991127 21.967425)
      (xy -2.08977 21.940539)
      (xy -2.160631 21.923525)
      (xy -2.193449 21.919036)
      (xy -2.193699 21.919109)
      (xy -2.182774 21.938776)
      (xy -2.140979 21.990737)
      (xy -2.07243 22.070316)
      (xy -1.981246 22.172838)
      (xy -1.871543 22.293625)
      (xy -1.74744 22.428003)
      (xy -1.714163 22.46369)
      (xy -1.212328 23.000839)
      (xy -1.093924 22.915774)
      (xy -0.845077 22.767472)
      (xy -0.575149 22.661632)
      (xy -0.291114 22.598241)
      (xy 0.000054 22.57729)
      (xy 0.291379 22.598768)
      (xy 0.575888 22.662664)
      (xy 0.846605 22.768967)
      (xy 1.096556 22.917666)
      (xy 1.098641 22.919162)
      (xy 1.167343 22.96643)
      (xy 1.21956 22.998524)
      (xy 1.240437 23.007615)
      (xy 1.263592 22.990477)
      (xy 1.316484 22.942878)
      (xy 1.393045 22.870541)
      (xy 1.487211 22.779189)
      (xy 1.583909 22.683539)
      (xy 1.908707 22.359462)
      (xy 1.674652 22.12443)
      (xy 1.588537 22.03643)
      (xy 1.518475 21.961901)
      (xy 1.470794 21.907799)
      (xy 1.451821 21.881081)
      (xy 1.452012 21.879649)
      (xy 1.480021 21.870122)
      (xy 1.549657 21.850843)
      (xy 1.653567 21.82361)
      (xy 1.784399 21.790223)
      (xy 1.934801 21.75248)
      (xy 2.097418 21.712181)
      (xy 2.2649 21.671124)
      (xy 2.429893 21.631109)
      (xy 2.585044 21.593933)
      (xy 2.723001 21.561397)
      (xy 2.836411 21.535299)
      (xy 2.917922 21.517437)
      (xy 2.960181 21.509612)
    ) (layer "F.SilkS") (width 0) (fill solid) (tstamp ef1e820c-9a79-4572-aad2-28b436976e5d))
  (fp_poly (pts
      (xy -0.467731 57.057913)
      (xy -0.434338 57.062688)
      (xy -0.232057 57.118838)
      (xy -0.055805 57.215989)
      (xy 0.091831 57.349961)
      (xy 0.208266 57.516573)
      (xy 0.290914 57.711644)
      (xy 0.337189 57.930995)
      (xy 0.344504 58.170443)
      (xy 0.332034 58.301653)
      (xy 0.278575 58.529893)
      (xy 0.187084 58.727346)
      (xy 0.061277 58.891134)
      (xy -0.095132 59.018374)
      (xy -0.278425 59.106188)
      (xy -0.484887 59.151693)
      (xy -0.710802 59.152009)
      (xy -0.757727 59.146433)
      (xy -0.9477 59.095608)
      (xy -1.123124 59.001737)
      (xy -1.274847 58.872119)
      (xy -1.393718 58.714052)
      (xy -1.451466 58.593108)
      (xy -1.50854 58.379345)
      (xy -1.531459 58.145225)
      (xy -1.528441 58.081551)
      (xy -0.941683 58.081551)
      (xy -0.932108 58.268311)
      (xy -0.901906 58.411045)
      (xy -0.848862 58.513182)
      (xy -0.770761 58.578151)
      (xy -0.665388 58.609381)
      (xy -0.598096 58.613427)
      (xy -0.503161 58.60729)
      (xy -0.435442 58.584291)
      (xy -0.385415 58.548967)
      (xy -0.316929 58.469959)
      (xy -0.272628 58.364623)
      (xy -0.250002 58.224967)
      (xy -0.245715 58.104409)
      (xy -0.25766 57.921)
      (xy -0.294493 57.780629)
      (xy -0.357708 57.681128)
      (xy -0.448803 57.620326)
      (xy -0.569272 57.596053)
      (xy -0.596616 57.595391)
      (xy -0.722448 57.611126)
      (xy -0.817696 57.660324)
      (xy -0.884482 57.745974)
      (xy -0.924927 57.871064)
      (xy -0.941153 58.038583)
      (xy -0.941683 58.081551)
      (xy -1.528441 58.081551)
      (xy -1.520222 57.908132)
      (xy -1.47483 57.685451)
      (xy -1.451466 57.61571)
      (xy -1.358746 57.437496)
      (xy -1.228707 57.288584)
      (xy -1.067969 57.172571)
      (xy -0.883148 57.093057)
      (xy -0.680863 57.053638)
    ) (layer "F.SilkS") (width 0) (fill solid) (tstamp ef998605-5553-4240-82f0-af6df1d82878))
  (fp_poly (pts
      (xy -0.350421 -56.548597)
      (xy -0.343587 -55.957951)
      (xy 0.165431 -56.525135)
      (xy 0.416721 -56.525794)
      (xy 0.66801 -56.526453)
      (xy 0.118912 -55.937705)
      (xy 0.403043 -55.520536)
      (xy 0.489954 -55.392267)
      (xy 0.566125 -55.278577)
      (xy 0.627217 -55.18605)
      (xy 0.668889 -55.121267)
      (xy 0.686803 -55.090812)
      (xy 0.687175 -55.089559)
      (xy 0.663593 -55.083589)
      (xy 0.600317 -55.078999)
      (xy 0.508548 -55.076429)
      (xy 0.451754 -55.076105)
      (xy 0.216333 -55.076459)
      (xy 0.03833 -55.356065)
      (xy -0.029192 -55.460276)
      (xy -0.087535 -55.546854)
      (xy -0.131118 -55.607765)
      (xy -0.154356 -55.634973)
      (xy -0.155953 -55.635671)
      (xy -0.180697 -55.618313)
      (xy -0.226921 -55.573691)
      (xy -0.264273 -55.533794)
      (xy -0.313041 -55.476359)
      (xy -0.340621 -55.427719)
      (xy -0.353018 -55.369609)
      (xy -0.356238 -55.283762)
      (xy -0.356312 -55.253834)
      (xy -0.356312 -55.075751)
      (xy -0.815006 -55.075751)
      (xy -0.808355 -56.10015)
      (xy -0.801703 -57.124549)
      (xy -0.579479 -57.131896)
      (xy -0.357255 -57.139242)
    ) (layer "F.SilkS") (width 0) (fill solid) (tstamp f48cb48d-244e-47ef-8e1e-cf35976f1129))
)
